# Blender v2.79 (sub 0) OBJ File: ''
# www.blender.org
mtllib BasicSwordElement#2.mtl
o Cube.011
v -0.044021 7.220865 -1.163671
v -0.044021 6.470865 -1.163671
v -0.989594 6.380865 -1.093671
v -1.078849 7.220865 -1.163671
v -0.960047 8.220865 -1.084871
v -0.044021 8.220865 -1.099004
v 0.871653 8.220865 -1.084871
v 0.991776 7.220865 -1.163671
v 0.900996 6.380865 -1.093671
v 2.099170 7.220865 -1.163671
v 1.612339 7.970865 -1.101171
v 2.112450 8.109755 -0.969227
v 2.693394 7.970865 -0.913671
v 3.767271 8.220481 -1.063671
v 3.197832 7.220865 -1.163671
v 3.061606 6.665310 -1.052560
v 2.487585 6.470865 -0.913671
v 2.020980 6.331976 -0.885894
v 1.612339 6.470865 -0.913671
v -0.044021 7.220865 0.836329
v -0.044021 6.470865 0.836329
v 0.900996 6.380865 0.766329
v 0.991776 7.220865 0.836329
v 0.871653 8.220865 0.757528
v -0.044021 8.220865 0.771661
v -0.960047 8.220865 0.757528
v -1.078849 7.220865 0.836329
v -0.989594 6.380865 0.766329
v -0.822699 9.220865 0.392327
v -0.860047 9.220865 0.206994
v -0.998028 8.470865 0.178995
v -1.113691 8.470865 0.537828
v -0.609355 9.220865 0.531326
v -0.418573 9.776421 0.373139
v -0.516097 9.970865 0.246824
v -0.561512 9.970865 0.109993
v -2.183332 7.220865 -1.163671
v -1.703849 6.470865 -0.913671
v -2.115056 6.331976 -0.885894
v -2.578849 6.470865 -0.913671
v -3.143256 6.665310 -1.052560
v -3.267298 7.220865 -1.163671
v -3.819807 8.220481 -1.063671
v -2.767298 7.970865 -0.913671
v -2.198811 8.109755 -0.969227
v -1.703849 7.970865 -1.101171
v 2.891469 8.220865 -0.163671
v 1.944144 8.220865 0.086329
v 1.944144 8.220865 0.148829
v 2.057455 8.220865 0.398829
v 2.112450 8.109755 0.641884
v 2.693394 7.970865 0.586329
v 3.767271 8.220481 0.736329
v 3.734321 8.470265 0.211329
v 3.734321 8.470265 0.086329
v 3.734321 8.470265 -0.038671
v 3.734321 8.470265 -0.163671
v 3.734321 8.470265 -0.288671
v 3.734321 8.470265 -0.413671
v 3.734321 8.470265 -0.538671
v 2.057455 8.220865 -0.726171
v 1.944144 8.220865 -0.476171
v 1.944144 8.220865 -0.413671
v 1.944144 8.220865 -0.163671
v 2.099170 7.220865 0.836329
v 1.612339 6.470865 0.586329
v 2.020980 6.331976 0.558551
v 2.487585 6.470865 0.586329
v 3.061606 6.665310 0.725218
v 3.197832 7.220865 0.836329
v 1.612339 7.970865 0.773829
v -0.038938 10.220865 0.198323
v 0.436950 9.970865 0.246824
v 0.491259 9.970865 0.109993
v -0.033855 10.220865 0.077659
v -0.042751 9.970865 0.353490
v 0.334483 9.776421 0.373139
v -0.044021 9.220865 0.577658
v 0.522583 9.220865 0.531326
v -0.044021 9.220865 -0.905001
v 0.522583 9.220865 -0.858667
v -0.609355 9.220865 -0.858667
v -0.418573 9.776421 -0.700480
v -0.042751 9.970865 -0.680830
v 0.334483 9.776421 -0.700480
v 0.739739 9.220865 -0.719667
v 0.782170 9.220865 -0.534335
v 0.912526 8.470865 -0.506337
v 1.025440 8.470865 -0.865171
v 0.436950 9.970865 -0.574165
v 0.491259 9.970865 -0.437333
v -1.544021 8.220865 0.586329
v -1.703849 7.970865 0.773829
v -1.544021 8.220865 0.273829
v -2.044021 8.220865 0.148829
v -2.148504 8.220865 0.398829
v -2.198811 8.109755 0.641884
v 1.450062 6.220865 -0.163671
v 1.079499 6.220865 0.023829
v 1.010877 6.220865 -0.163671
v 1.079499 6.220865 -0.351171
v 1.010877 6.220865 -0.608116
v 1.079499 6.220865 -0.726171
v 2.072350 6.220865 -0.538671
v 2.072350 6.220865 -0.413671
v 2.072350 6.220865 -0.288671
v 2.072350 6.220865 -0.163671
v 2.072350 6.220865 -0.038671
v 2.072350 6.220865 0.086329
v 2.072350 6.220865 0.211329
v 1.079499 6.220865 0.398829
v 1.010877 6.220865 0.280773
v -2.183332 7.220865 0.836329
v -2.767298 7.970865 0.586329
v -3.819807 8.220481 0.736329
v -3.267298 7.220865 0.836329
v -3.143256 6.665310 0.725218
v -2.578849 6.470865 0.586329
v -2.115056 6.331976 0.558551
v -1.703849 6.470865 0.586329
v 0.739739 9.220865 0.392327
v 1.025440 8.470865 0.537828
v 0.912526 8.470865 0.178995
v 0.782170 9.220865 0.206994
v -0.822699 9.220865 -0.719667
v -1.113691 8.470865 -0.865171
v -0.998028 8.470865 -0.506337
v -0.860047 9.220865 -0.534335
v -0.561512 9.970865 -0.437333
v -0.516097 9.970865 -0.574165
v -3.961954 7.220865 0.836329
v -3.523504 6.470865 0.586329
v -4.413038 8.220265 0.836329
v -4.788038 8.220265 0.680079
v -4.336954 7.220865 0.586329
v -3.951992 6.665310 0.558551
v -2.961954 8.220865 -0.163671
v -2.044021 8.220865 -0.413671
v -2.044021 8.220865 -0.476171
v -2.148504 8.220865 -0.726171
v -3.788038 8.470265 -0.538671
v -3.788038 8.470265 -0.413671
v -3.788038 8.470265 -0.288671
v -3.788038 8.470265 -0.163671
v -3.788038 8.470265 -0.038671
v -3.788038 8.470265 0.086329
v -3.788038 8.470265 0.211329
v -2.044021 8.220865 0.086329
v -2.044021 8.220865 -0.163671
v -1.544021 6.220865 -0.163671
v -1.169021 6.220865 -0.726171
v -1.099577 6.220865 -0.608116
v -1.169021 6.220865 -0.351171
v -1.099577 6.220865 -0.163671
v -1.169021 6.220865 0.023829
v -1.099577 6.220865 0.280773
v -1.169021 6.220865 0.398829
v -2.169021 6.220865 0.211329
v -2.169021 6.220865 0.086329
v -2.169021 6.220865 -0.038671
v -2.169021 6.220865 -0.163671
v -2.169021 6.220865 -0.288671
v -2.169021 6.220865 -0.413671
v -2.169021 6.220865 -0.538671
v -0.038938 10.220865 -0.525664
v -0.033855 10.220865 -0.405000
v -1.544021 8.220865 -0.913671
v -1.544021 8.220865 -0.601171
v 1.450062 8.220865 -0.913671
v 1.450062 8.220865 -0.601171
v 2.951048 6.220865 -0.163671
v 3.440098 6.470865 -0.913671
v 3.873835 6.665310 -0.885894
v 3.815098 6.470865 -0.538671
v 3.815098 6.470865 -0.413671
v 3.815098 6.470865 -0.288671
v 3.815098 6.470865 -0.163671
v 3.815098 6.470865 -0.038671
v 3.815098 6.470865 0.086329
v 3.815098 6.470865 0.211329
v 3.873835 6.665310 0.558551
v 3.440098 6.470865 0.586329
v 1.450062 8.220865 0.586329
v 1.450062 8.220865 0.273829
v -4.461954 7.220865 -0.163671
v -4.913038 8.220265 -0.288671
v -4.913038 8.220265 -0.413671
v -4.913038 8.220265 -0.538671
v -4.788038 8.220265 -1.007421
v -4.336954 7.220865 -0.913671
v -3.951992 6.665310 -0.885894
v -3.898504 6.470865 -0.538671
v -3.898504 6.470865 -0.413671
v -3.898504 6.470865 -0.288671
v -3.898504 6.470865 -0.163671
v -3.898504 6.470865 -0.038671
v -3.898504 6.470865 0.086329
v -3.898504 6.470865 0.211329
v -4.913038 8.220265 0.211329
v -4.913038 8.220265 0.086329
v -4.913038 8.220265 -0.038671
v -4.913038 8.220265 -0.163671
v -3.961954 7.220865 -1.163671
v -4.413038 8.220265 -1.163671
v -3.523504 6.470865 -0.913671
v 4.397387 7.220865 -0.163671
v 4.860801 8.220265 -0.038671
v 4.860801 8.220265 0.086329
v 4.860801 8.220265 0.211329
v 4.735801 8.220265 0.680079
v 4.272387 7.220865 0.586329
v 4.272387 7.220865 -0.913671
v 4.735801 8.220265 -1.007421
v 4.860801 8.220265 -0.538671
v 4.860801 8.220265 -0.413671
v 4.860801 8.220265 -0.288671
v 4.860801 8.220265 -0.163671
v 3.897386 7.220865 0.836329
v 4.360801 8.220265 0.836329
v 3.897386 7.220865 -1.163671
v 4.360801 8.220265 -1.163671
v 4.868228 9.218466 0.836330
v 4.493228 9.218466 0.586330
v 5.243228 9.218466 0.586330
v 5.440136 9.772689 0.558552
v 5.265304 9.966666 0.586330
v 4.884581 9.772689 0.558552
v -0.044021 6.220865 -1.163671
v -0.794021 6.220865 -1.101171
v 0.705979 6.220865 -1.101171
v 0.511534 6.220865 -0.969227
v -0.044021 6.220865 -0.913671
v -0.599577 6.220865 -0.969227
v -0.044021 6.220865 -0.163671
v 0.705979 6.220865 0.023829
v 0.844868 6.220865 0.280773
v 0.705979 6.220865 0.398829
v 0.511534 6.220865 0.641884
v -0.044021 6.220865 0.586329
v -0.599577 6.220865 0.641884
v -0.794021 6.220865 0.398829
v -0.932910 6.220865 0.280773
v -0.794021 6.220865 0.023829
v -0.932910 6.220865 -0.163671
v -0.794021 6.220865 -0.351171
v -0.932910 6.220865 -0.608116
v -0.794021 6.220865 -0.726171
v 0.705979 6.220865 -0.726171
v 0.844868 6.220865 -0.608116
v 0.705979 6.220865 -0.351171
v 0.844868 6.220865 -0.163671
v 0.955979 6.220865 -0.413671
v 0.955979 6.220865 -0.663671
v 0.955979 6.220865 -0.163671
v -1.044021 6.220865 -0.913671
v -1.044021 6.220865 -0.663671
v -1.044021 6.220865 -0.413671
v -1.044021 6.220865 -0.163671
v 0.955979 6.220865 0.586329
v 0.955979 6.220865 0.336329
v 0.705979 6.220865 0.773829
v 0.955979 6.220865 0.086329
v -0.044021 6.220865 0.836329
v -0.794021 6.220865 0.773829
v -1.044021 6.220865 0.586329
v -1.044021 6.220865 0.336329
v 0.955979 6.220865 -0.913671
v -1.044021 6.220865 0.086329
v -5.480968 10.216066 -0.163670
v -4.968333 9.966666 -0.038670
v -4.968333 9.966666 -0.163670
v -4.968333 9.966666 -0.288670
v -4.968333 9.966666 -0.413670
v -4.968333 9.966666 -0.538670
v -4.958506 9.772689 -0.885893
v -5.343333 9.966666 -0.913670
v -5.514062 9.772689 -0.885893
v -5.718333 9.966666 -0.538670
v -5.718333 9.966666 -0.413670
v -5.718333 9.966666 -0.288670
v -5.718333 9.966666 -0.163670
v -5.718333 9.966666 -0.038670
v -5.718333 9.966666 0.086330
v -5.718333 9.966666 0.211330
v -5.514062 9.772689 0.558552
v -5.343333 9.966666 0.586330
v -4.958506 9.772689 0.558552
v -4.968333 9.966666 0.211330
v -4.968333 9.966666 0.086330
v 5.397663 10.216066 -0.163670
v 4.890305 9.966666 -0.538670
v 4.890304 9.966666 -0.413670
v 4.890305 9.966666 -0.288670
v 4.890304 9.966666 -0.163670
v 4.890305 9.966666 -0.038670
v 4.890304 9.966666 0.086330
v 4.890305 9.966666 0.211330
v 5.640305 9.966666 0.211330
v 5.640304 9.966666 0.086330
v 5.640305 9.966666 -0.038670
v 5.640304 9.966666 -0.163670
v 5.640305 9.966666 -0.288670
v 5.640304 9.966666 -0.413670
v 5.640305 9.966666 -0.538670
v 5.440136 9.772689 -0.885893
v 5.265304 9.966666 -0.913670
v 4.884581 9.772689 -0.885893
v 4.868228 9.218466 -1.163670
v 5.243228 9.218466 -0.913670
v 4.493228 9.218466 -0.913670
v -4.930428 9.218466 0.836330
v -5.305428 9.218466 0.586330
v -4.555428 9.218466 0.586330
v 4.368229 9.218466 -0.163670
v -4.930428 9.218466 -1.163670
v -4.555428 9.218466 -0.913670
v -5.305428 9.218466 -0.913670
v -4.430427 9.218466 -0.163670
v 5.368229 9.218466 -0.163670
v -5.430427 9.218466 -0.163670
v -3.044021 6.220865 -0.163671
v 1.450062 8.220865 -0.163671
v 1.944144 8.220865 -0.163671
v 0.955979 8.220865 -0.163671
v -1.544021 8.220865 -0.163671
v -2.044021 8.220865 -0.163671
v -1.044021 8.220865 -0.163671
vn -0.0332 -0.0458 -0.9984
vn -0.0072 0.0720 -0.9974
vn -0.0069 0.0723 -0.9974
vn -0.0026 0.0803 -0.9968
vn 0.0072 0.0720 -0.9974
vn 0.0026 0.0803 -0.9968
vn 0.0069 0.0722 -0.9974
vn 0.0332 -0.0458 -0.9984
vn 0.1671 0.2083 -0.9637
vn -0.0958 0.2562 -0.9619
vn -0.0478 -0.2748 -0.9603
vn 0.0000 -0.2983 -0.9545
vn 0.1072 -0.2334 -0.9664
vn 0.0022 0.0812 -0.9967
vn 0.0332 -0.0459 0.9984
vn 0.0072 0.0720 0.9974
vn 0.0068 0.0723 0.9974
vn 0.0026 0.0803 0.9968
vn -0.0072 0.0720 0.9974
vn -0.0026 0.0803 0.9968
vn -0.0069 0.0723 0.9974
vn -0.0332 -0.0458 0.9984
vn -0.9551 0.2624 -0.1375
vn -0.5183 0.3553 0.7779
vn -0.4622 0.3642 0.8085
vn -0.8895 0.3958 0.2285
vn 0.0484 -0.2756 -0.9601
vn 0.0974 0.2557 -0.9618
vn -0.1698 0.2078 -0.9633
vn -0.0022 0.0812 -0.9967
vn -0.1072 -0.2329 -0.9666
vn 0.0000 1.0000 0.0000
vn 0.2465 0.8988 0.3624
vn -0.3182 0.8959 0.3100
vn -0.2837 0.9589 0.0000
vn -0.3182 0.8959 -0.3100
vn 0.2465 0.8988 -0.3624
vn 0.0000 -0.2983 0.9545
vn -0.0478 -0.2748 0.9603
vn -0.0958 0.2562 0.9619
vn 0.1671 0.2083 0.9637
vn 0.0022 0.0812 0.9967
vn 0.1072 -0.2334 0.9664
vn 0.4380 0.8933 0.1010
vn -0.4400 0.8954 0.0689
vn -0.1909 0.4962 0.8470
vn 0.1889 0.4928 0.8494
vn -0.0399 0.2121 0.9764
vn 0.0398 0.2121 0.9764
vn 0.0870 0.2914 0.9526
vn -0.0873 0.2918 0.9525
vn 0.0398 0.2121 -0.9764
vn -0.0399 0.2121 -0.9764
vn -0.0873 0.2918 -0.9525
vn 0.0870 0.2914 -0.9526
vn 0.9586 0.2562 0.1242
vn 0.5165 0.3530 -0.7801
vn 0.4560 0.3607 -0.8136
vn 0.8813 0.3916 -0.2646
vn -0.2213 0.6175 0.7548
vn -0.4636 0.8824 -0.0799
vn -0.0804 0.7827 0.6172
vn 0.0000 -1.0000 0.0000
vn 0.3023 -0.8935 -0.3322
vn -0.2330 -0.9165 -0.3252
vn -0.2330 -0.9165 0.3252
vn 0.3023 -0.8935 0.3322
vn -0.1698 0.2078 0.9633
vn 0.0974 0.2557 0.9618
vn 0.0484 -0.2756 0.9601
vn -0.1072 -0.2329 0.9666
vn -0.0022 0.0812 0.9967
vn 0.5165 0.3530 0.7801
vn 0.9586 0.2562 -0.1242
vn 0.8813 0.3916 0.2646
vn 0.4560 0.3607 0.8136
vn -0.5183 0.3553 -0.7779
vn -0.9551 0.2624 0.1375
vn -0.8895 0.3958 -0.2285
vn -0.4622 0.3642 -0.8085
vn -0.0700 -0.2938 0.9533
vn 0.0771 0.0884 0.9931
vn -0.4614 -0.2482 0.8518
vn -0.3855 -0.4182 0.8225
vn -0.2524 0.8970 -0.3629
vn 0.3239 0.8942 -0.3091
vn 0.2890 0.9573 0.0000
vn 0.3239 0.8942 0.3091
vn -0.2524 0.8970 0.3629
vn -0.3009 -0.8936 0.3331
vn 0.2316 -0.9172 0.3242
vn 0.2316 -0.9172 -0.3242
vn -0.3009 -0.8936 -0.3331
vn 0.1889 0.4928 -0.8494
vn -0.1909 0.4962 -0.8470
vn -0.4400 0.8954 -0.0689
vn 0.4380 0.8933 -0.1010
vn -0.4636 0.8824 0.0799
vn -0.2213 0.6175 -0.7548
vn -0.0804 0.7827 -0.6172
vn 0.2232 0.6178 -0.7540
vn 0.4689 0.8797 0.0789
vn 0.0797 0.7832 -0.6167
vn 0.1930 -0.9015 -0.3873
vn 0.0000 -0.8944 -0.4472
vn 0.2524 -0.9341 -0.2524
vn 0.2779 -0.9606 0.0000
vn 0.2524 -0.9341 0.2524
vn 0.0000 -0.8944 0.4472
vn 0.1930 -0.9015 0.3873
vn 0.4689 0.8797 -0.0789
vn 0.2232 0.6178 0.7540
vn 0.0797 0.7832 0.6167
vn -0.9115 -0.4114 0.0000
vn -0.8799 -0.4395 -0.1805
vn -0.8184 -0.5542 -0.1516
vn -0.7995 -0.6006 0.0000
vn -0.8184 -0.5542 0.1516
vn -0.8799 -0.4395 0.1805
vn 0.0771 0.0884 -0.9931
vn -0.0700 -0.2938 -0.9533
vn -0.3855 -0.4182 -0.8225
vn -0.4614 -0.2482 -0.8518
vn 0.9072 -0.4207 0.0000
vn 0.8757 -0.4482 0.1796
vn 0.8092 -0.5682 0.1496
vn 0.7899 -0.6133 0.0000
vn 0.8092 -0.5682 -0.1496
vn 0.8757 -0.4482 -0.1796
vn -0.0768 0.0893 0.9930
vn 0.0695 -0.2952 0.9529
vn 0.3838 -0.4259 0.8193
vn 0.4607 -0.2535 0.8506
vn 0.0695 -0.2952 -0.9529
vn -0.0768 0.0893 -0.9930
vn 0.4607 -0.2535 -0.8506
vn 0.3838 -0.4259 -0.8193
vn -0.3272 0.2702 0.9055
vn 0.4670 -0.1969 0.8621
vn 0.4472 -0.0132 0.8943
vn -0.4061 0.4190 0.8121
vn -0.0769 -0.0185 -0.9969
vn 0.0769 -0.0184 -0.9969
vn -0.6183 -0.4852 -0.6183
vn 0.6207 -0.4822 0.6182
vn 0.0770 -0.0184 0.9969
vn -0.0769 -0.0185 0.9969
vn -0.6183 -0.4852 0.6183
vn 0.6207 -0.4822 -0.6182
vn 0.4375 0.8992 0.0000
vn 0.3181 0.8931 -0.3181
vn -0.4517 0.7694 -0.4517
vn -0.7244 0.6894 0.0000
vn -0.4517 0.7694 0.4517
vn 0.3181 0.8931 0.3181
vn -0.4411 0.8974 0.0000
vn -0.3201 0.8917 0.3201
vn 0.4484 0.7733 0.4484
vn 0.7168 0.6973 0.0000
vn 0.4484 0.7733 -0.4484
vn -0.3201 0.8917 -0.3201
vn 0.4670 -0.1969 -0.8621
vn -0.3272 0.2702 -0.9055
vn -0.4061 0.4190 -0.8121
vn 0.4472 -0.0132 -0.8943
vn -0.4665 -0.2014 0.8613
vn 0.3270 0.2732 0.9047
vn 0.4046 0.4261 0.8092
vn -0.4471 -0.0227 0.8942
vn -0.7376 0.6395 -0.2167
vn -0.7630 0.6464 0.0000
vn -0.7376 0.6395 0.2167
vn -0.8271 0.5311 0.1838
vn -0.8201 0.5722 0.0000
vn -0.8271 0.5311 -0.1838
vn 0.3270 0.2732 -0.9047
vn -0.4665 -0.2014 -0.8613
vn -0.4471 -0.0227 -0.8942
vn 0.4046 0.4261 -0.8092
vn 0.7337 0.6441 0.2164
vn 0.7587 0.6514 0.0000
vn 0.7337 0.6441 -0.2164
vn 0.8194 0.5435 -0.1821
vn 0.8119 0.5837 0.0000
vn 0.8194 0.5435 0.1821
vn 0.8914 -0.4532 0.0000
vn 0.8931 -0.4110 -0.1832
vn 0.9034 -0.3788 -0.2008
vn 0.9398 -0.3417 0.0000
vn 0.9034 -0.3788 0.2008
vn 0.8931 -0.4110 0.1832
vn -0.8878 -0.4602 0.0000
vn -0.8898 -0.4183 0.1825
vn -0.8968 -0.3950 0.1993
vn -0.9333 -0.3591 0.0000
vn -0.8968 -0.3950 -0.1993
vn -0.8898 -0.4183 -0.1825
vn -0.1942 -0.9008 0.3883
vn -0.2544 -0.9330 0.2544
vn -0.2808 -0.9598 0.0000
vn -0.2544 -0.9330 -0.2544
vn -0.1942 -0.9008 -0.3883
vn 0.2504 0.9259 0.2828
vn 0.2504 0.9259 -0.2828
vn -0.2471 0.9269 -0.2824
vn -0.2471 0.9269 0.2824
usemtl None.003
s 1
f 1//1 2//1 3//1 4//1
f 1//2 4//3 5//4 6//2
f 1//5 6//5 7//6 8//7
f 1//8 8//8 9//8 2//8
f 10//9 11//9 12//9 13//9
f 10//10 13//10 14//10 15//10
f 10//11 15//11 16//11 17//11
f 10//12 17//12 18//12 19//12
f 10//13 19//13 9//13 8//13
f 10//14 8//7 7//6 11//14
f 20//15 21//15 22//15 23//15
f 20//16 23//17 24//18 25//16
f 20//19 25//19 26//20 27//21
f 20//22 27//22 28//22 21//22
f 29//23 30//23 31//23 32//23
f 29//24 32//24 26//24 33//24
f 29//25 33//25 34//25 35//25
f 29//26 35//26 36//26 30//26
f 37//12 38//12 39//12 40//12
f 37//27 40//27 41//27 42//27
f 37//28 42//28 43//28 44//28
f 37//29 44//29 45//29 46//29
f 37//30 46//30 5//4 4//3
f 37//31 4//31 3//31 38//31
f 47//32 48//32 49//32 50//32
f 47//33 50//33 51//33 52//33
f 47//34 52//34 53//34 54//34
f 47//35 54//35 55//35 56//35
f 47//35 56//35 57//35 58//35
f 47//35 58//35 59//35 60//35
f 47//36 60//36 14//36 13//36
f 47//37 13//37 12//37 61//37
f 47//32 61//32 62//32 63//32
f 47//32 63//32 64//32 48//32
f 65//38 66//38 67//38 68//38
f 65//39 68//39 69//39 70//39
f 65//40 70//40 53//40 52//40
f 65//41 52//41 51//41 71//41
f 65//42 71//42 24//18 23//17
f 65//43 23//43 22//43 66//43
f 72//44 73//44 74//44 75//44
f 72//45 75//45 36//45 35//45
f 72//46 35//46 34//46 76//46
f 72//47 76//47 77//47 73//47
f 78//48 33//48 26//48 25//48
f 78//49 25//49 24//49 79//49
f 78//50 79//50 77//50 76//50
f 78//51 76//51 34//51 33//51
f 80//52 81//52 7//52 6//52
f 80//53 6//53 5//53 82//53
f 80//54 82//54 83//54 84//54
f 80//55 84//55 85//55 81//55
f 86//56 87//56 88//56 89//56
f 86//57 89//57 7//57 81//57
f 86//58 81//58 85//58 90//58
f 86//59 90//59 91//59 87//59
f 92//60 93//60 26//60 32//60
f 92//61 32//61 31//61 94//61
f 92//32 94//32 95//32 96//32
f 92//62 96//62 97//62 93//62
f 98//63 99//63 100//63 101//63
f 98//63 101//63 102//63 103//63
f 98//64 103//64 9//64 19//64
f 98//65 19//65 18//65 104//65
f 98//63 104//63 105//63 106//63
f 98//63 106//63 107//63 108//63
f 98//63 108//63 109//63 110//63
f 98//66 110//66 67//66 66//66
f 98//67 66//67 22//67 111//67
f 98//63 111//63 112//63 99//63
f 113//68 93//68 97//68 114//68
f 113//69 114//69 115//69 116//69
f 113//70 116//70 117//70 118//70
f 113//38 118//38 119//38 120//38
f 113//71 120//71 28//71 27//71
f 113//72 27//21 26//20 93//72
f 121//73 79//73 24//73 122//73
f 121//74 122//74 123//74 124//74
f 121//75 124//75 74//75 73//75
f 121//76 73//76 77//76 79//76
f 125//77 82//77 5//77 126//77
f 125//78 126//78 127//78 128//78
f 125//79 128//79 129//79 130//79
f 125//80 130//80 83//80 82//80
f 131//81 132//81 117//81 116//81
f 131//82 116//82 115//82 133//82
f 131//83 133//83 134//83 135//83
f 131//84 135//84 136//84 132//84
f 137//32 138//32 139//32 140//32
f 137//85 140//85 45//85 44//85
f 137//86 44//86 43//86 141//86
f 137//87 141//87 142//87 143//87
f 137//87 143//87 144//87 145//87
f 137//87 145//87 146//87 147//87
f 137//88 147//88 115//88 114//88
f 137//89 114//89 97//89 96//89
f 137//32 96//32 95//32 148//32
f 137//32 148//32 149//32 138//32
f 150//63 151//63 152//63 153//63
f 150//63 153//63 154//63 155//63
f 150//63 155//63 156//63 157//63
f 150//90 157//90 28//90 120//90
f 150//91 120//91 119//91 158//91
f 150//63 158//63 159//63 160//63
f 150//63 160//63 161//63 162//63
f 150//63 162//63 163//63 164//63
f 150//92 164//92 39//92 38//92
f 150//93 38//93 3//93 151//93
f 165//94 90//94 85//94 84//94
f 165//95 84//95 83//95 130//95
f 165//96 130//96 129//96 166//96
f 165//97 166//97 91//97 90//97
f 167//98 168//98 127//98 126//98
f 167//99 126//99 5//99 46//99
f 167//100 46//100 45//100 140//100
f 167//32 140//32 139//32 168//32
f 169//101 11//101 7//101 89//101
f 169//102 89//102 88//102 170//102
f 169//32 170//32 62//32 61//32
f 169//103 61//103 12//103 11//103
f 171//63 106//63 105//63 104//63
f 171//104 104//104 18//104 17//104
f 171//105 17//105 16//105 172//105
f 171//106 172//106 173//106 174//106
f 171//107 174//107 175//107 176//107
f 171//107 176//107 177//107 178//107
f 171//107 178//107 179//107 180//107
f 171//108 180//108 181//108 182//108
f 171//109 182//109 69//109 68//109
f 171//110 68//110 67//110 110//110
f 171//63 110//63 109//63 108//63
f 171//63 108//63 107//63 106//63
f 183//111 184//111 123//111 122//111
f 183//112 122//112 24//112 71//112
f 183//113 71//113 51//113 50//113
f 183//32 50//32 49//32 184//32
f 185//114 186//114 187//114 188//114
f 185//115 188//115 189//115 190//115
f 185//116 190//116 191//116 192//116
f 185//117 192//117 193//117 194//117
f 185//117 194//117 195//117 196//117
f 185//117 196//117 197//117 198//117
f 185//118 198//118 136//118 135//118
f 185//119 135//119 134//119 199//119
f 185//114 199//114 200//114 201//114
f 185//114 201//114 202//114 186//114
f 203//120 204//120 43//120 42//120
f 203//121 42//121 41//121 205//121
f 203//122 205//122 191//122 190//122
f 203//123 190//123 189//123 204//123
f 206//124 207//124 208//124 209//124
f 206//125 209//125 210//125 211//125
f 206//126 211//126 181//126 180//126
f 206//127 180//127 179//127 178//127
f 206//127 178//127 177//127 176//127
f 206//127 176//127 175//127 174//127
f 206//128 174//128 173//128 212//128
f 206//129 212//129 213//129 214//129
f 206//124 214//124 215//124 216//124
f 206//124 216//124 217//124 207//124
f 218//130 219//130 53//130 70//130
f 218//131 70//131 69//131 182//131
f 218//132 182//132 181//132 211//132
f 218//133 211//133 210//133 219//133
f 220//134 172//134 16//134 15//134
f 220//135 15//135 14//135 221//135
f 220//136 221//136 213//136 212//136
f 220//137 212//137 173//137 172//137
f 222//138 223//138 53//138 219//138
f 222//139 219//139 210//139 224//139
f 222//140 224//140 225//140 226//140
f 222//141 226//141 227//141 223//141
f 228//142 229//142 3//142 2//142
f 228//143 2//143 9//143 230//143
f 228//63 230//63 231//63 232//63
f 228//63 232//63 233//63 229//63
f 234//63 235//63 236//63 237//63
f 234//63 237//63 238//63 239//63
f 234//63 239//63 240//63 241//63
f 234//63 241//63 242//63 243//63
f 234//63 243//63 244//63 245//63
f 234//63 245//63 246//63 247//63
f 234//63 247//63 233//63 232//63
f 234//63 232//63 231//63 248//63
f 234//63 248//63 249//63 250//63
f 234//63 250//63 251//63 235//63
f 252//63 253//63 102//63 101//63
f 252//63 101//63 100//63 254//63
f 252//63 254//63 251//63 250//63
f 252//63 250//63 249//63 253//63
f 255//63 256//63 152//63 151//63
f 255//144 151//144 3//144 229//144
f 255//63 229//63 233//63 247//63
f 255//63 247//63 246//63 256//63
f 257//63 258//63 154//63 153//63
f 257//63 153//63 152//63 256//63
f 257//63 256//63 246//63 245//63
f 257//63 245//63 244//63 258//63
f 259//63 260//63 112//63 111//63
f 259//145 111//145 22//145 261//145
f 259//63 261//63 238//63 237//63
f 259//63 237//63 236//63 260//63
f 262//63 254//63 100//63 99//63
f 262//63 99//63 112//63 260//63
f 262//63 260//63 236//63 235//63
f 262//63 235//63 251//63 254//63
f 263//146 261//146 22//146 21//146
f 263//147 21//147 28//147 264//147
f 263//63 264//63 240//63 239//63
f 263//63 239//63 238//63 261//63
f 265//148 264//148 28//148 157//148
f 265//63 157//63 156//63 266//63
f 265//63 266//63 242//63 241//63
f 265//63 241//63 240//63 264//63
f 267//149 230//149 9//149 103//149
f 267//63 103//63 102//63 253//63
f 267//63 253//63 249//63 248//63
f 267//63 248//63 231//63 230//63
f 268//63 266//63 156//63 155//63
f 268//63 155//63 154//63 258//63
f 268//63 258//63 244//63 243//63
f 268//63 243//63 242//63 266//63
f 269//150 270//150 271//150 272//150
f 269//150 272//150 273//150 274//150
f 269//151 274//151 275//151 276//151
f 269//152 276//152 277//152 278//152
f 269//153 278//153 279//153 280//153
f 269//153 280//153 281//153 282//153
f 269//153 282//153 283//153 284//153
f 269//154 284//154 285//154 286//154
f 269//155 286//155 287//155 288//155
f 269//150 288//150 289//150 270//150
f 290//156 291//156 292//156 293//156
f 290//156 293//156 294//156 295//156
f 290//156 295//156 296//156 297//156
f 290//157 297//157 227//157 226//157
f 290//158 226//158 225//158 298//158
f 290//159 298//159 299//159 300//159
f 290//159 300//159 301//159 302//159
f 290//159 302//159 303//159 304//159
f 290//160 304//160 305//160 306//160
f 290//161 306//161 307//161 291//161
f 308//162 309//162 213//162 221//162
f 308//163 221//163 14//163 310//163
f 308//164 310//164 307//164 306//164
f 308//165 306//165 305//165 309//165
f 311//166 312//166 134//166 133//166
f 311//167 133//167 115//167 313//167
f 311//168 313//168 287//168 286//168
f 311//169 286//169 285//169 312//169
f 314//170 310//170 14//170 60//170
f 314//171 60//171 59//171 58//171
f 314//171 58//171 57//171 56//171
f 314//171 56//171 55//171 54//171
f 314//172 54//172 53//172 223//172
f 314//173 223//173 227//173 297//173
f 314//174 297//174 296//174 295//174
f 314//174 295//174 294//174 293//174
f 314//174 293//174 292//174 291//174
f 314//175 291//175 307//175 310//175
f 315//176 316//176 43//176 204//176
f 315//177 204//177 189//177 317//177
f 315//178 317//178 277//178 276//178
f 315//179 276//179 275//179 316//179
f 318//180 313//180 115//180 147//180
f 318//181 147//181 146//181 145//181
f 318//181 145//181 144//181 143//181
f 318//181 143//181 142//181 141//181
f 318//182 141//182 43//182 316//182
f 318//183 316//183 275//183 274//183
f 318//184 274//184 273//184 272//184
f 318//184 272//184 271//184 270//184
f 318//184 270//184 289//184 288//184
f 318//185 288//185 287//185 313//185
f 319//186 209//186 208//186 207//186
f 319//186 207//186 217//186 216//186
f 319//186 216//186 215//186 214//186
f 319//187 214//187 213//187 309//187
f 319//188 309//188 305//188 304//188
f 319//189 304//189 303//189 302//189
f 319//189 302//189 301//189 300//189
f 319//189 300//189 299//189 298//189
f 319//190 298//190 225//190 224//190
f 319//191 224//191 210//191 209//191
f 320//192 188//192 187//192 186//192
f 320//192 186//192 202//192 201//192
f 320//192 201//192 200//192 199//192
f 320//193 199//193 134//193 312//193
f 320//194 312//194 285//194 284//194
f 320//195 284//195 283//195 282//195
f 320//195 282//195 281//195 280//195
f 320//195 280//195 279//195 278//195
f 320//196 278//196 277//196 317//196
f 320//197 317//197 189//197 188//197
f 321//63 160//63 159//63 158//63
f 321//198 158//198 119//198 118//198
f 321//109 118//109 117//109 132//109
f 321//199 132//199 136//199 198//199
f 321//200 198//200 197//200 196//200
f 321//200 196//200 195//200 194//200
f 321//200 194//200 193//200 192//200
f 321//201 192//201 191//201 205//201
f 321//105 205//105 41//105 40//105
f 321//202 40//202 39//202 164//202
f 321//63 164//63 163//63 162//63
f 321//63 162//63 161//63 160//63
f 322//32 184//32 49//32 323//32
f 322//32 323//32 62//32 170//32
f 322//203 170//203 88//203 324//203
f 322//204 324//204 123//204 184//204
f 325//32 326//32 95//32 94//32
f 325//205 94//205 31//205 327//205
f 325//206 327//206 127//206 168//206
f 325//32 168//32 139//32 326//32
