# Blender v2.79 (sub 0) OBJ File: ''
# www.blender.org
mtllib Bush#1.mtl
o Cube
v 0.326389 -0.204830 -0.326389
v 0.326389 -0.204830 0.326389
v -0.326389 -0.204830 0.326389
v -0.326389 -0.204830 -0.326389
v 0.326389 0.902716 -0.326389
v -0.326389 0.902716 -0.326389
v -0.326389 0.902716 0.326389
v 0.326389 0.902716 0.326389
v 0.763889 -0.009784 -0.326389
v 0.763889 0.465216 -0.326389
v 0.763889 0.465216 0.326389
v 0.763889 -0.009784 0.326389
v 0.326389 -0.009784 0.763889
v 0.326389 0.465216 0.763889
v -0.326389 -0.009784 0.763889
v -0.763889 -0.009784 0.326389
v -0.763889 0.465216 0.326389
v -0.763889 0.465216 -0.326389
v -0.763889 -0.009784 -0.326389
v -0.011926 0.499541 0.881536
v 0.326389 -0.009784 -0.763889
v -0.326389 -0.009784 -0.763889
v 0.290158 0.747804 0.661050
v 0.350694 -0.228048 -0.000000
v -0.000000 -0.228048 0.350694
v -0.350694 -0.228048 -0.000000
v 0.000000 -0.228048 -0.350695
v -0.350695 0.958272 0.000000
v 0.350694 0.958272 0.000000
v 0.302083 0.748566 -0.665023
v 0.819444 0.489522 0.000000
v 0.000000 0.500302 -0.885509
v 0.819444 -0.034089 0.000000
v 0.350694 0.183272 0.819445
v -0.000000 -0.034089 0.819444
v 0.658976 0.011520 -0.598958
v -0.819445 0.489522 -0.000000
v 0.879462 -0.037091 0.000000
v -0.819444 -0.034089 -0.000000
v 0.314463 0.475235 0.825980
v 0.000000 -0.034089 -0.819444
v 0.338769 0.193291 0.881536
v -0.011926 -0.024070 0.881536
v 0.598958 -0.132851 -0.302083
v 0.598958 -0.132851 0.302083
v 0.302083 -0.132851 -0.598958
v -0.302083 -0.132851 -0.598958
v 0.598958 0.014522 -0.598958
v 0.598958 0.440911 -0.598958
v 0.302083 -0.132851 0.598958
v -0.302083 -0.132851 0.598958
v 0.598958 0.014522 0.598958
v 0.598958 0.440911 0.598959
v -0.598958 -0.132851 0.302083
v -0.598958 -0.132851 -0.302084
v -0.598958 0.014522 0.598958
v -0.598959 0.440911 0.598958
v -0.598958 0.014522 -0.598958
v -0.598958 0.440911 -0.598958
v -0.643629 0.782457 -0.302083
v -0.346754 0.782457 -0.598958
v 0.302083 0.737786 -0.598958
v -0.302083 0.737786 -0.598958
v 0.302083 0.737786 0.598958
v -0.302084 0.737786 0.598958
v -0.664406 0.011249 0.598958
v -0.884892 -0.037362 -0.000000
v 0.000000 -0.238569 -0.000000
v 0.326389 0.475997 -0.829954
v 0.823907 -0.012785 -0.326389
v 0.314463 0.000235 0.825980
v 0.643229 -0.169037 0.000000
v 0.000000 -0.169037 -0.643229
v 0.643229 0.183272 -0.643229
v -0.000000 -0.169037 0.643229
v 0.643229 0.183272 0.643229
v -0.643229 -0.169037 -0.000000
v -0.643229 0.183272 0.643229
v -0.643229 0.183272 -0.643229
v -0.371060 0.947388 -0.326389
v 0.000000 0.782057 -0.643229
v -0.000000 0.782057 0.643229
v -0.829336 -0.013057 0.326389
v 0.509259 -0.086702 -0.509259
v 0.509259 -0.086702 0.509259
v -0.509259 -0.086702 0.509259
v -0.509259 -0.086702 -0.509259
v 0.509259 0.648087 -0.509259
v 0.509259 0.648087 0.509260
v -0.509260 0.648087 0.509259
v -0.509259 0.648087 -0.509259
v 0.326389 0.983254 -0.326389
v 0.350694 1.038810 0.000000
v 0.302083 0.818324 -0.598958
v 0.000000 1.038810 -0.350694
v -0.326389 0.983254 -0.326389
v -0.302083 0.818324 -0.598958
v -0.350695 1.038810 0.000000
v -0.326389 0.983254 0.326389
v -0.302084 0.818324 0.598958
v -0.000000 1.038810 0.350695
v 0.326389 0.983254 0.326389
v 0.302083 0.818324 0.598958
v -0.000000 1.097837 0.000000
v 0.000000 0.862594 -0.643229
v -0.000000 0.862594 0.643229
v 0.366759 0.943087 -0.326389
v 0.391065 0.998642 0.000000
v 0.639329 0.778156 -0.302083
v 0.342454 0.778156 -0.598958
v 0.366759 0.943087 0.326389
v 0.342453 0.778156 0.598958
v 0.639328 0.778156 0.302084
v 0.804259 0.505587 -0.326389
v 0.639329 0.481281 -0.598958
v 0.859815 0.529892 0.000000
v 0.804259 0.505587 0.326389
v 0.639328 0.481281 0.598959
v 0.683599 0.822427 0.000000
v 0.549630 0.688457 -0.509259
v 0.549629 0.688457 0.509260
v -0.395366 1.002943 0.000000
v -0.371060 0.947388 0.326389
v -0.643630 0.782457 0.302083
v -0.346755 0.782457 0.598958
v -0.808560 0.509888 0.326389
v -0.643630 0.485582 0.598958
v -0.864116 0.534193 -0.000000
v -0.808560 0.509888 -0.326389
v -0.643629 0.485582 -0.598958
v -0.687900 0.826728 -0.000000
v -0.553931 0.692758 0.509259
v -0.553930 0.692758 -0.509259
v -0.884892 0.179999 0.350694
v -0.829336 0.461943 0.326389
v -0.664406 0.437638 0.598958
v -0.884892 0.486249 -0.000000
v -0.829336 0.461943 -0.326389
v -0.664406 0.437638 -0.598958
v -0.884892 0.179999 -0.350695
v -0.829336 -0.013057 -0.326389
v -0.664406 0.011249 -0.598958
v -0.943920 0.179999 -0.000000
v -0.708677 0.179999 0.643229
v -0.708676 0.179999 -0.643229
v 0.879462 0.180270 -0.350694
v 0.823907 0.462215 -0.326389
v 0.658976 0.437909 -0.598958
v 0.879462 0.486520 0.000000
v 0.823907 0.462215 0.326389
v 0.658976 0.437909 0.598959
v 0.879462 0.180270 0.350695
v 0.823907 -0.012785 0.326389
v 0.658976 0.011520 0.598958
v 0.938490 0.180270 0.000000
v 0.703247 0.180270 -0.643229
v 0.703247 0.180270 0.643229
v 0.598958 0.451691 -0.665023
v 0.350695 0.194052 -0.885509
v 0.326389 0.000997 -0.829954
v 0.598958 0.025302 -0.665023
v 0.000000 -0.023309 -0.885510
v -0.326389 0.000997 -0.829954
v -0.598958 0.025302 -0.665024
v -0.350694 0.194052 -0.885510
v -0.326389 0.475997 -0.829954
v -0.598958 0.451691 -0.665024
v -0.302083 0.748566 -0.665023
v 0.000000 0.194052 -0.944537
v 0.643229 0.194052 -0.709294
v -0.643229 0.194052 -0.709294
v 0.000000 0.792837 -0.709294
v 0.509259 0.658867 -0.575324
v -0.509259 0.658867 -0.575324
v -0.338315 0.475235 0.825980
v -0.314009 0.747804 0.661050
v -0.610884 0.450929 0.661049
v -0.362620 0.193291 0.881536
v -0.338314 0.000235 0.825980
v -0.610884 0.024541 0.661049
v -0.011926 0.193291 0.940563
v -0.011926 0.792075 0.705321
v -0.655155 0.193291 0.705320
v -0.521185 0.658105 0.571350
v 0.371222 0.002045 0.833771
v 0.643791 0.026351 0.668840
v 0.395527 0.195101 0.889326
v 0.371221 0.477045 0.833771
v 0.643791 0.452740 0.668840
v 0.346916 0.749615 0.668840
v 0.688062 0.195101 0.713111
v 0.554092 0.659916 0.579141
vn 0.0515 -0.9973 -0.0515
vn 0.1163 -0.9664 -0.2290
vn 0.2938 -0.9096 -0.2938
vn 0.2290 -0.9664 -0.1163
vn 0.0515 -0.9973 0.0515
vn 0.2290 -0.9664 0.1163
vn 0.2938 -0.9096 0.2938
vn 0.1163 -0.9664 0.2290
vn -0.0515 -0.9973 0.0515
vn -0.1163 -0.9664 0.2290
vn -0.2938 -0.9096 0.2938
vn -0.2290 -0.9664 0.1163
vn -0.0515 -0.9973 -0.0515
vn -0.2290 -0.9664 -0.1163
vn -0.2938 -0.9096 -0.2938
vn -0.1163 -0.9664 -0.2290
vn -0.1450 0.0000 -0.9894
vn 0.6643 -0.6643 0.3427
vn -0.6643 0.6643 -0.3427
vn 0.1450 0.0000 0.9894
vn 0.9960 0.0000 -0.0888
vn 0.1450 0.0000 -0.9894
vn -0.7055 -0.7055 -0.0675
vn 0.6643 0.6643 -0.3427
vn -0.9960 0.0000 -0.0888
vn 0.7055 0.7055 0.0675
vn -0.2778 -0.2778 0.9196
vn 0.9972 0.0000 0.0743
vn -0.9972 0.0000 0.0743
vn -0.9972 0.0000 -0.0743
vn -0.7055 0.7055 0.0675
vn 0.2778 -0.2778 0.9196
vn -0.0125 -0.2507 0.9680
vn 0.5868 -0.7918 -0.1694
vn 0.5081 -0.7715 -0.3830
vn 0.0085 0.1708 -0.9853
vn -0.0499 -0.9970 0.0587
vn -0.0499 -0.9970 -0.0587
vn -0.2778 0.2778 0.9196
vn 0.2778 -0.2778 -0.9196
vn -0.0125 -0.2507 -0.9680
vn 0.6643 -0.6643 -0.3427
vn 0.7055 -0.7055 0.0675
vn 0.0496 0.9917 -0.1184
vn -0.0498 -0.9966 0.0657
vn 0.0498 0.9953 0.0826
vn 0.5081 -0.7715 0.3830
vn 0.5868 -0.7918 0.1694
vn 0.1243 0.9831 -0.1347
vn 0.1694 -0.7918 0.5868
vn 0.3830 -0.7715 0.5081
vn -0.8437 0.0328 0.5357
vn 0.9786 0.1177 0.1690
vn 0.8367 0.0501 -0.5453
vn 0.2568 0.9122 -0.3192
vn -0.9258 0.3027 -0.2266
vn 0.1031 -0.9787 0.1777
vn 0.9597 -0.1823 0.2137
vn -0.9695 0.1310 -0.2073
vn -0.3108 0.9271 -0.2093
vn -0.1637 -0.9784 0.1264
vn 0.9707 0.1816 0.1571
vn -0.3830 -0.7715 0.5081
vn -0.1694 -0.7918 0.5868
vn 0.0498 -0.9966 -0.0657
vn -0.5868 -0.7918 0.1694
vn -0.5081 -0.7715 0.3830
vn -0.0498 0.9953 -0.0826
vn -0.0085 0.1708 -0.9853
vn -0.0085 0.1708 0.9853
vn -0.7055 -0.7055 0.0675
vn -0.2778 -0.2778 -0.9196
vn -0.0498 0.9953 0.0826
vn -0.6643 -0.6643 -0.3427
vn 0.7055 0.7055 -0.0675
vn 0.0125 -0.2507 -0.9680
vn 0.0498 -0.9966 0.0657
vn -0.0496 0.9917 -0.1184
vn -0.5081 -0.7715 -0.3830
vn -0.5868 -0.7918 -0.1694
vn 0.9860 0.1648 0.0269
vn 0.1004 -0.9820 -0.1602
vn -0.3367 0.9293 0.1516
vn 0.9635 -0.2641 -0.0431
vn -0.9253 0.3742 0.0611
vn -0.1202 0.9798 0.1599
vn 0.3830 -0.7715 -0.5081
vn 0.1694 -0.7918 -0.5868
vn -0.9860 0.1648 0.0269
vn -0.1694 -0.7918 -0.5868
vn -0.3830 -0.7715 -0.5081
vn 0.1823 -0.9704 -0.1583
vn 0.1202 0.9798 0.1599
vn -0.9635 -0.2641 -0.0431
vn 0.3367 0.9293 0.1516
vn -0.1823 -0.9704 -0.1583
vn 0.1704 0.9705 -0.1704
vn 0.1890 0.8371 -0.5134
vn -0.1704 0.9705 -0.1704
vn -0.1890 0.8371 -0.5134
vn -0.1704 0.9705 0.1704
vn -0.1890 0.8371 0.5134
vn 0.1704 0.9705 0.1704
vn 0.1890 0.8371 0.5134
vn 0.9960 0.0000 0.0888
vn -0.9960 0.0000 0.0888
vn -0.1450 0.0000 0.9894
vn 0.9972 0.0000 -0.0743
vn 0.5134 0.8371 -0.1890
vn 0.4961 0.7126 -0.4961
vn 0.4961 0.7126 0.4961
vn 0.5134 0.8371 0.1890
vn 0.7126 0.4961 -0.4961
vn 0.8371 0.5134 -0.1890
vn 0.8371 0.5134 0.1890
vn 0.7126 0.4961 0.4961
vn 0.7055 -0.7055 -0.0675
vn -0.6643 0.6643 0.3427
vn -0.2778 0.2778 -0.9196
vn -0.7055 0.7055 -0.0675
vn -0.4961 0.7126 -0.4961
vn -0.5134 0.8371 -0.1890
vn -0.5134 0.8371 0.1890
vn -0.4961 0.7126 0.4961
vn -0.7126 0.4961 0.4961
vn -0.8371 0.5134 0.1890
vn -0.8371 0.5134 -0.1890
vn -0.7126 0.4961 -0.4961
vn -0.6643 -0.6643 0.3427
vn 0.2778 0.2778 0.9196
vn 0.2778 0.2778 -0.9196
vn 0.6643 0.6643 0.3427
vn -0.9465 -0.2743 0.1700
vn -0.8058 -0.3171 0.5001
vn -0.9658 0.1952 0.1705
vn -0.8312 0.2187 0.5112
vn -0.9658 0.1952 -0.1705
vn -0.8312 0.2187 -0.5112
vn -0.9465 -0.2743 -0.1700
vn -0.8058 -0.3171 -0.5001
vn -0.0496 0.9917 0.1184
vn 0.0499 -0.9970 0.0587
vn 0.0499 -0.9970 -0.0587
vn 0.0125 -0.2507 0.9680
vn 0.9465 -0.2743 -0.1700
vn 0.8058 -0.3171 -0.5001
vn 0.9658 0.1952 -0.1705
vn 0.8312 0.2187 -0.5112
vn 0.9658 0.1952 0.1705
vn 0.8312 0.2187 0.5112
vn 0.9465 -0.2743 0.1700
vn 0.8058 -0.3171 0.5001
vn 0.0496 0.9917 0.1184
vn -0.0498 -0.9966 -0.0657
vn 0.0498 0.9953 -0.0826
vn 0.0085 0.1708 0.9853
vn 0.1705 0.1952 -0.9658
vn 0.1890 0.5134 -0.8371
vn 0.4961 0.4961 -0.7126
vn 0.5112 0.2187 -0.8312
vn 0.1700 -0.2743 -0.9465
vn 0.5001 -0.3171 -0.8058
vn -0.1700 -0.2743 -0.9465
vn -0.5001 -0.3171 -0.8058
vn -0.1705 0.1952 -0.9658
vn -0.5112 0.2187 -0.8312
vn -0.4961 0.4961 -0.7126
vn -0.1890 0.5134 -0.8371
vn -0.1004 -0.9820 -0.1602
vn 0.9253 0.3742 0.0611
vn 0.1700 -0.2743 0.9465
vn 0.1705 0.1952 0.9658
vn 0.1890 0.5134 0.8371
vn -0.1705 0.1952 0.9658
vn -0.1890 0.5134 0.8371
vn -0.4961 0.4961 0.7126
vn -0.5112 0.2187 0.8312
vn -0.1700 -0.2743 0.9465
vn -0.5001 -0.3171 0.8058
vn -0.0973 -0.9853 0.1403
vn -0.1168 0.9767 -0.1800
vn -0.9652 -0.2136 -0.1509
vn 0.5001 -0.3171 0.8058
vn 0.5112 0.2187 0.8312
vn 0.4961 0.4961 0.7126
vn 0.1363 -0.9875 0.0797
vn 0.8263 0.1195 -0.5504
vn 0.8451 -0.0832 -0.5281
vn -0.8366 -0.0516 0.5454
vn -0.8367 0.2270 0.4984
usemtl Material
s off
f 1//1 24//1 68//1 27//1
f 1//2 27//2 73//2 46//2
f 1//3 46//3 84//3 44//3
f 1//4 44//4 72//4 24//4
f 2//5 25//5 68//5 24//5
f 2//6 24//6 72//6 45//6
f 2//7 45//7 85//7 50//7
f 2//8 50//8 75//8 25//8
f 3//9 26//9 68//9 25//9
f 3//10 25//10 75//10 51//10
f 3//11 51//11 86//11 54//11
f 3//12 54//12 77//12 26//12
f 4//13 27//13 68//13 26//13
f 4//14 26//14 77//14 55//14
f 4//15 55//15 87//15 47//15
f 4//16 47//16 73//16 27//16
f 81//17 63//17 97//17 105//17
f 53//18 11//18 117//18 118//18
f 62//19 5//19 107//19 110//19
f 82//20 64//20 103//20 106//20
f 5//21 62//21 94//21 92//21
f 62//22 81//22 105//22 94//22
f 18//23 37//23 128//23 129//23
f 6//24 63//24 61//24 80//24
f 63//25 6//25 96//25 97//25
f 7//26 28//26 122//26 123//26
f 90//27 65//27 125//27 132//27
f 8//28 29//28 93//28 102//28
f 28//29 7//29 99//29 98//29
f 6//30 28//30 98//30 96//30
f 29//31 8//31 111//31 108//31
f 64//32 89//32 121//32 112//32
f 76//33 52//33 154//33 157//33
f 9//34 33//34 72//34 44//34
f 9//35 44//35 84//35 48//35
f 74//36 49//36 148//36 156//36
f 52//37 12//37 153//37 154//37
f 9//38 48//38 36//38 70//38
f 89//39 53//39 118//39 121//39
f 88//40 62//40 110//40 120//40
f 48//41 74//41 156//41 36//41
f 10//42 49//42 115//42 114//42
f 11//43 31//43 116//43 117//43
f 49//44 10//44 147//44 148//44
f 12//45 33//45 38//45 153//45
f 31//46 11//46 150//46 149//46
f 12//47 52//47 85//47 45//47
f 12//48 45//48 72//48 33//48
f 64//49 82//49 182//49 23//49
f 13//50 35//50 75//50 50//50
f 13//51 50//51 85//51 52//51
f 14//52 34//52 187//52 188//52
f 34//53 14//53 40//53 42//53
f 76//54 53//54 189//54 191//54
f 89//55 64//55 190//55 192//55
f 90//56 57//56 177//56 184//56
f 35//57 13//57 71//57 43//57
f 13//58 34//58 42//58 71//58
f 57//59 78//59 183//59 177//59
f 65//60 90//60 184//60 176//60
f 56//61 15//61 179//61 180//61
f 14//62 64//62 23//62 40//62
f 15//63 56//63 86//63 51//63
f 15//64 51//64 75//64 35//64
f 19//65 39//65 67//65 141//65
f 16//66 39//66 77//66 54//66
f 16//67 54//67 86//67 56//67
f 37//68 18//68 138//68 137//68
f 59//69 79//69 145//69 139//69
f 78//70 57//70 136//70 144//70
f 37//71 17//71 126//71 128//71
f 63//72 91//72 133//72 61//72
f 17//73 37//73 137//73 135//73
f 59//74 18//74 129//74 130//74
f 28//75 6//75 80//75 122//75
f 79//76 58//76 142//76 145//76
f 39//77 16//77 83//77 67//77
f 18//78 59//78 139//78 138//78
f 19//79 58//79 87//79 55//79
f 19//80 55//80 77//80 39//80
f 49//81 74//81 170//81 158//81
f 21//82 41//82 162//82 160//82
f 91//83 63//83 168//83 174//83
f 74//84 48//84 161//84 170//84
f 59//85 91//85 174//85 167//85
f 63//86 81//86 172//86 168//86
f 21//87 48//87 84//87 46//87
f 21//88 46//88 73//88 41//88
f 79//89 59//89 167//89 171//89
f 22//90 41//90 73//90 47//90
f 22//91 47//91 87//91 58//91
f 48//92 21//92 160//92 161//92
f 81//93 62//93 30//93 172//93
f 58//94 79//94 171//94 164//94
f 62//95 88//95 173//95 30//95
f 22//96 58//96 164//96 163//96
f 92//97 95//97 104//97 93//97
f 92//98 94//98 105//98 95//98
f 96//99 98//99 104//99 95//99
f 96//100 95//100 105//100 97//100
f 99//101 101//101 104//101 98//101
f 99//102 100//102 106//102 101//102
f 102//103 93//103 104//103 101//103
f 102//104 101//104 106//104 103//104
f 64//105 8//105 102//105 103//105
f 7//106 65//106 100//106 99//106
f 65//107 82//107 106//107 100//107
f 29//108 5//108 92//108 93//108
f 107//109 108//109 119//109 109//109
f 107//110 109//110 120//110 110//110
f 111//111 112//111 121//111 113//111
f 111//112 113//112 119//112 108//112
f 114//113 115//113 120//113 109//113
f 114//114 109//114 119//114 116//114
f 117//115 116//115 119//115 113//115
f 117//116 113//116 121//116 118//116
f 31//117 10//117 114//117 116//117
f 8//118 64//118 112//118 111//118
f 49//119 88//119 120//119 115//119
f 5//120 29//120 108//120 107//120
f 80//121 61//121 133//121 60//121
f 80//122 60//122 131//122 122//122
f 123//123 122//123 131//123 124//123
f 123//124 124//124 132//124 125//124
f 126//125 127//125 132//125 124//125
f 126//126 124//126 131//126 128//126
f 129//127 128//127 131//127 60//127
f 129//128 60//128 133//128 130//128
f 17//129 57//129 127//129 126//129
f 57//130 90//130 132//130 127//130
f 91//131 59//131 130//131 133//131
f 65//132 7//132 123//132 125//132
f 83//133 134//133 143//133 67//133
f 83//134 66//134 144//134 134//134
f 135//135 137//135 143//135 134//135
f 135//136 134//136 144//136 136//136
f 138//137 140//137 143//137 137//137
f 138//138 139//138 145//138 140//138
f 141//139 67//139 143//139 140//139
f 141//140 140//140 145//140 142//140
f 57//141 17//141 135//141 136//141
f 16//142 56//142 66//142 83//142
f 58//143 19//143 141//143 142//143
f 56//144 78//144 144//144 66//144
f 70//145 146//145 155//145 38//145
f 70//146 36//146 156//146 146//146
f 147//147 149//147 155//147 146//147
f 147//148 146//148 156//148 148//148
f 150//149 152//149 155//149 149//149
f 150//150 151//150 157//150 152//150
f 153//151 38//151 155//151 152//151
f 153//152 152//152 157//152 154//152
f 11//153 53//153 151//153 150//153
f 33//154 9//154 70//154 38//154
f 10//155 31//155 149//155 147//155
f 53//156 76//156 157//156 151//156
f 69//157 159//157 169//157 32//157
f 69//158 32//158 172//158 30//158
f 69//159 30//159 173//159 158//159
f 69//160 158//160 170//160 159//160
f 160//161 162//161 169//161 159//161
f 160//162 159//162 170//162 161//162
f 163//163 165//163 169//163 162//163
f 163//164 164//164 171//164 165//164
f 166//165 32//165 169//165 165//165
f 166//166 165//166 171//166 167//166
f 166//167 167//167 174//167 168//167
f 166//168 168//168 172//168 32//168
f 41//169 22//169 163//169 162//169
f 88//170 49//170 158//170 173//170
f 71//171 42//171 181//171 43//171
f 40//172 20//172 181//172 42//172
f 40//173 23//173 182//173 20//173
f 175//174 178//174 181//174 20//174
f 175//175 20//175 182//175 176//175
f 175//176 176//176 184//176 177//176
f 175//177 177//177 183//177 178//177
f 179//178 43//178 181//178 178//178
f 179//179 178//179 183//179 180//179
f 15//180 35//180 43//180 179//180
f 82//181 65//181 176//181 182//181
f 78//182 56//182 180//182 183//182
f 185//183 186//183 191//183 187//183
f 188//184 187//184 191//184 189//184
f 188//185 189//185 192//185 190//185
f 13//186 52//186 186//186 185//186
f 53//187 89//187 192//187 189//187
f 52//188 76//188 191//188 186//188
f 34//189 13//189 185//189 187//189
f 64//190 14//190 188//190 190//190
