# Blender v2.79 (sub 0) OBJ File: ''
# www.blender.org
mtllib Enemy(1).mtl
o Cube
v -0.650000 3.557612 -0.000000
v -0.000000 5.557612 0.650000
v 1.000000 5.207613 0.000000
v -0.000000 3.907612 1.000000
v -1.006217 3.907612 -0.000000
v 0.000000 3.907612 -0.993344
v -0.000000 6.307612 0.300000
v 0.650000 5.557612 0.000000
v -0.650000 5.557612 -0.000000
v 0.000000 5.557612 -0.650000
v -0.300000 2.807612 -0.000000
v -0.000000 3.557612 0.650000
v 0.000000 3.557612 -0.650000
v 0.650000 3.557612 -0.000000
v -0.300000 4.557612 -1.736689
v 0.650000 4.557612 -0.993344
v 0.000000 5.207613 -0.993344
v -0.650000 4.557612 -0.993345
v -0.300001 4.557612 1.750000
v -0.000000 5.207613 1.000000
v -0.650000 4.557612 1.000000
v 0.650000 4.557612 1.000000
v 1.750000 4.857613 0.000001
v 1.000000 4.557612 0.650000
v 1.000000 4.557612 -0.650000
v 1.000000 3.907612 0.000000
v -1.762435 4.557612 -0.300000
v -1.006218 4.557612 0.650000
v -1.006217 5.207613 -0.000000
v -1.006217 4.557612 -0.650000
v -0.000000 7.057612 0.000000
v 0.300000 6.307612 0.000000
v -0.300000 6.307612 0.000000
v 0.000000 6.307612 -0.300000
v 2.500000 4.557612 0.000001
v 1.750000 4.557612 -0.300000
v 1.750000 4.557612 0.300000
v 1.750000 4.257612 0.000000
v -2.512435 4.557612 -0.000001
v -1.762435 4.257612 -0.000000
v -1.762435 4.857612 -0.000000
v -1.762435 4.557612 0.300000
v -0.000001 4.557612 2.500000
v -0.000001 4.257612 1.750000
v -0.000001 4.857612 1.750000
v 0.299999 4.557612 1.750000
v 0.000000 2.057612 -0.000000
v 0.000000 2.807612 -0.300000
v 0.000000 2.807612 0.300000
v 0.300000 2.807612 -0.000000
v 0.000001 4.557613 -2.486689
v 0.000000 4.257613 -1.736689
v 0.000000 4.857613 -1.736689
v 0.300000 4.557612 -1.736689
v 0.912500 3.645113 0.000000
v 0.000000 3.645113 -0.910836
v 0.912500 4.557612 -0.910836
v -0.000000 3.645113 0.912500
v 0.912500 4.557612 0.912500
v -0.914054 3.645113 -0.000000
v -0.914055 4.557612 0.912500
v -0.914054 4.557612 -0.910836
v 0.912500 5.470112 0.000001
v 0.000000 5.470112 -0.910836
v -0.000000 5.470112 0.912500
v -0.914054 5.470112 -0.000000
v 0.387500 5.745112 0.000000
v 0.000000 5.745112 -0.387500
v -0.000000 5.745112 0.387500
v -0.387500 5.745112 0.000000
v 0.487500 5.557612 0.487500
v -0.487500 5.557612 0.487500
v 0.487500 5.557612 -0.487500
v -0.487500 5.557612 -0.487500
v 0.387500 3.370112 -0.000000
v 0.000000 3.370112 -0.387500
v 0.000000 3.370112 0.387500
v -0.387500 3.370112 -0.000000
v -0.487500 3.557612 -0.487500
v -0.487500 3.557612 0.487500
v 0.487500 3.557612 0.487500
v 0.487500 3.557612 -0.487500
v 0.000000 4.170113 -1.175853
v 0.387500 4.557612 -1.175853
v -0.387500 4.557612 -1.175853
v 0.000000 4.945112 -1.175853
v -0.487500 4.070112 -0.993345
v 0.487500 4.070112 -0.993344
v 0.487500 5.045113 -0.993344
v -0.487500 5.045113 -0.993344
v -0.000000 4.170113 1.187500
v 0.387500 4.557612 1.187500
v -0.387500 4.557612 1.187500
v -0.000000 4.945112 1.187500
v 0.487500 4.070112 1.000000
v -0.487500 4.070112 1.000000
v -0.487500 5.045113 1.000000
v 0.487500 5.045113 1.000000
v 1.187500 4.170113 0.000000
v 1.187500 4.557612 -0.387500
v 1.187500 4.557612 0.387500
v 1.187500 4.945112 0.000000
v 1.000000 5.045113 0.487500
v 1.000000 5.045113 -0.487500
v 1.000000 4.070112 0.487500
v 1.000000 4.070112 -0.487500
v -1.198380 4.170113 -0.000000
v -1.198381 4.557612 0.387500
v -1.198380 4.557612 -0.387500
v -1.198381 4.945112 -0.000000
v -1.006217 4.070112 0.487500
v -1.006217 4.070112 -0.487500
v -1.006218 5.045113 0.487500
v -1.006217 5.045113 -0.487500
v 0.225000 6.870112 0.000000
v -0.000000 6.870112 -0.225000
v -0.000000 6.870112 0.225000
v -0.225000 6.870112 0.000000
v 0.225000 6.307612 0.225000
v -0.225000 6.307612 0.225000
v 0.225000 6.307612 -0.225000
v -0.225000 6.307612 -0.225000
v 2.312500 4.332613 0.000001
v 2.312500 4.557612 -0.224999
v 2.312500 4.557612 0.225001
v 2.312500 4.782612 0.000001
v 1.750000 4.782612 0.225001
v 1.750000 4.782612 -0.224999
v 1.750000 4.332613 -0.225000
v 1.750000 4.332613 0.225000
v -2.324935 4.332612 -0.000000
v -2.324935 4.557612 0.225000
v -2.324935 4.557612 -0.225000
v -2.324935 4.782612 -0.000000
v -1.762435 4.332612 -0.225000
v -1.762435 4.782612 -0.225000
v -1.762435 4.332612 0.225000
v -1.762435 4.782612 0.225000
v -0.000001 4.332612 2.312500
v 0.224999 4.557612 2.312500
v -0.225001 4.557612 2.312500
v -0.000001 4.782612 2.312500
v -0.225001 4.332613 1.750000
v -0.225001 4.782612 1.750000
v 0.224999 4.332613 1.750000
v 0.224999 4.782612 1.750000
v 0.225000 2.245112 -0.000000
v 0.000000 2.245112 -0.225000
v 0.000000 2.245112 0.225000
v -0.225000 2.245112 -0.000000
v -0.225000 2.807612 -0.225000
v -0.225000 2.807612 0.225000
v 0.225000 2.807612 -0.225000
v 0.225000 2.807612 0.225000
v 0.000000 4.332613 -2.299189
v 0.225001 4.557613 -2.299189
v -0.225000 4.557613 -2.299189
v 0.000000 4.782613 -2.299189
v -0.225000 4.782613 -1.736689
v -0.225000 4.332613 -1.736689
v 0.225000 4.332613 -1.736689
v 0.225000 4.782613 -1.736689
v 0.830556 3.727057 -0.829816
v 0.830555 3.727057 0.830556
v -0.831246 3.727057 0.830555
v -0.831246 3.727057 -0.829816
v 0.830556 5.388168 -0.829816
v 0.830555 5.388168 0.830556
v -0.831247 5.388168 0.830555
v -0.831246 5.388168 -0.829816
v 0.290625 5.745112 -0.290625
v 0.290625 5.745112 0.290625
v -0.290625 5.745112 -0.290625
v -0.290625 5.745112 0.290625
v 0.290625 3.370112 -0.290625
v 0.290625 3.370112 0.290625
v -0.290625 3.370112 -0.290625
v -0.290625 3.370112 0.290625
v 0.290625 4.266987 -1.175853
v -0.290625 4.266987 -1.175853
v 0.290625 4.848238 -1.175853
v -0.290625 4.848238 -1.175853
v 0.290625 4.266987 1.187500
v -0.290625 4.266987 1.187500
v 0.290625 4.848238 1.187500
v -0.290625 4.848238 1.187500
v 1.187500 4.266987 -0.290625
v 1.187500 4.266987 0.290625
v 1.187500 4.848238 -0.290625
v 1.187500 4.848238 0.290625
v -1.198380 4.266987 0.290625
v -1.198380 4.266987 -0.290625
v -1.198381 4.848238 0.290625
v -1.198380 4.848238 -0.290625
v 0.166667 6.724279 -0.166666
v 0.166666 6.724279 0.166667
v -0.166667 6.724279 -0.166667
v -0.166667 6.724279 0.166667
v 2.166667 4.390946 -0.166666
v 2.166667 4.390946 0.166667
v 2.166667 4.724279 -0.166666
v 2.166667 4.724279 0.166667
v -2.179102 4.390945 0.166666
v -2.179102 4.390945 -0.166667
v -2.179102 4.724279 0.166666
v -2.179102 4.724279 -0.166667
v 0.166666 4.390945 2.166667
v -0.166667 4.390945 2.166667
v 0.166666 4.724279 2.166667
v -0.166667 4.724279 2.166667
v 0.166667 2.390946 -0.166667
v 0.166667 2.390946 0.166667
v -0.166667 2.390946 -0.166667
v -0.166667 2.390946 0.166667
v 0.166667 4.390946 -2.153355
v -0.166666 4.390946 -2.153356
v 0.166667 4.724279 -2.153355
v -0.166666 4.724279 -2.153355
vn -0.3287 -0.9369 0.1194
vn -0.3287 -0.9368 -0.1195
vn -0.5706 -0.7989 -0.1902
vn -0.5706 -0.7989 0.1902
vn -0.1193 0.9365 0.3297
vn 0.1194 0.9365 0.3297
vn 0.1902 0.7989 0.5706
vn -0.1902 0.7989 0.5706
vn 0.9365 0.3298 -0.1195
vn 0.9365 0.3297 0.1194
vn 0.7989 0.5706 0.1902
vn 0.7989 0.5706 -0.1902
vn -0.1193 -0.3297 0.9365
vn 0.1194 -0.3297 0.9365
vn 0.1902 -0.5706 0.7989
vn -0.1902 -0.5706 0.7989
vn -0.9317 -0.3420 -0.1220
vn -0.9318 -0.3420 0.1220
vn -0.7917 -0.5796 0.1932
vn -0.7917 -0.5796 -0.1932
vn 0.1166 -0.3165 -0.9414
vn -0.1165 -0.3164 -0.9415
vn -0.1869 -0.5608 -0.8066
vn 0.1869 -0.5608 -0.8066
vn -0.3128 0.1460 0.9385
vn 0.3128 0.1460 0.9385
vn 0.3674 0.1469 0.9184
vn -0.3674 0.1469 0.9184
vn 0.3297 0.9365 0.1194
vn 0.3298 0.9365 -0.1195
vn 0.5706 0.7989 -0.1902
vn 0.5706 0.7989 0.1902
vn -0.3287 0.9368 -0.1195
vn -0.3287 0.9369 0.1194
vn -0.5706 0.7989 0.1902
vn -0.5706 0.7989 -0.1902
vn 0.1193 0.9361 -0.3309
vn -0.1193 0.9361 -0.3308
vn -0.1902 0.7989 -0.5706
vn 0.1902 0.7989 -0.5706
vn -0.9385 -0.1460 0.3128
vn -0.9385 -0.1460 -0.3128
vn -0.9184 -0.1469 -0.3674
vn -0.9184 -0.1469 0.3674
vn 0.1194 -0.9365 0.3297
vn -0.1193 -0.9365 0.3297
vn -0.1902 -0.7989 0.5706
vn 0.1902 -0.7989 0.5706
vn -0.1193 -0.9361 -0.3308
vn 0.1193 -0.9361 -0.3309
vn 0.1902 -0.7989 -0.5706
vn -0.1902 -0.7989 -0.5706
vn 0.3298 -0.9365 -0.1195
vn 0.3297 -0.9365 0.1194
vn 0.5706 -0.7989 0.1902
vn 0.5706 -0.7989 -0.1902
vn -0.9385 -0.3128 -0.1464
vn -0.9385 0.3128 -0.1464
vn -0.9184 0.3674 -0.1469
vn -0.9184 -0.3674 -0.1469
vn 0.3165 0.1166 -0.9414
vn 0.3165 -0.1166 -0.9414
vn 0.5608 -0.1869 -0.8066
vn 0.5608 0.1869 -0.8066
vn -0.1165 0.3164 -0.9415
vn 0.1166 0.3165 -0.9414
vn 0.1869 0.5608 -0.8066
vn -0.1869 0.5608 -0.8066
vn -0.3154 -0.1166 -0.9418
vn -0.3154 0.1166 -0.9418
vn -0.5608 0.1869 -0.8066
vn -0.5608 -0.1869 -0.8066
vn -0.9385 0.3128 0.1460
vn -0.9385 -0.3128 0.1460
vn -0.9184 -0.3674 0.1469
vn -0.9184 0.3674 0.1469
vn 0.1194 0.3297 0.9365
vn -0.1193 0.3297 0.9365
vn -0.1902 0.5706 0.7989
vn 0.1902 0.5706 0.7989
vn -0.3287 0.1194 0.9369
vn -0.3287 -0.1194 0.9369
vn -0.5706 -0.1902 0.7989
vn -0.5706 0.1902 0.7989
vn 0.3297 -0.1194 0.9365
vn 0.3297 0.1194 0.9365
vn 0.5706 0.1902 0.7989
vn 0.5706 -0.1902 0.7989
vn 0.1460 0.9385 -0.3128
vn 0.1460 0.9385 0.3128
vn 0.1469 0.9184 0.3674
vn 0.1469 0.9184 -0.3674
vn 0.9365 0.1194 0.3297
vn 0.9365 -0.1194 0.3297
vn 0.7989 -0.1902 0.5706
vn 0.7989 0.1902 0.5706
vn 0.9361 -0.1193 -0.3309
vn 0.9361 0.1193 -0.3309
vn 0.7989 0.1902 -0.5706
vn 0.7989 -0.1902 -0.5706
vn 0.9365 -0.3297 0.1194
vn 0.9365 -0.3298 -0.1195
vn 0.7989 -0.5706 -0.1902
vn 0.7989 -0.5706 0.1902
vn -0.1456 0.3129 -0.9386
vn -0.1456 -0.3129 -0.9386
vn -0.1469 -0.3674 -0.9184
vn -0.1469 0.3674 -0.9184
vn -0.9318 -0.1220 0.3419
vn -0.9318 0.1220 0.3420
vn -0.7917 0.1932 0.5796
vn -0.7917 -0.1932 0.5796
vn -0.9318 0.3419 0.1220
vn -0.9317 0.3420 -0.1220
vn -0.7917 0.5796 -0.1932
vn -0.7917 0.5796 0.1932
vn -0.9313 0.1219 -0.3431
vn -0.9313 -0.1219 -0.3431
vn -0.7917 -0.1932 -0.5796
vn -0.7917 0.1932 -0.5796
vn 0.5773 0.5774 -0.5774
vn -0.5773 0.5774 -0.5774
vn -0.5773 0.5774 0.5774
vn 0.5773 0.5774 0.5774
vn 0.9385 0.1460 0.3128
vn 0.9385 0.1460 -0.3128
vn 0.9184 0.1469 -0.3674
vn 0.9184 0.1469 0.3674
vn -0.9385 0.1460 -0.3128
vn -0.9385 0.1460 0.3128
vn -0.9184 0.1469 0.3674
vn -0.9184 0.1469 -0.3674
vn 0.3128 0.1460 -0.9385
vn -0.3128 0.1460 -0.9385
vn -0.3674 0.1469 -0.9184
vn 0.3674 0.1469 -0.9184
vn 0.5774 -0.5773 -0.5774
vn 0.5774 0.5773 -0.5774
vn 0.5773 0.5773 0.5774
vn 0.5773 -0.5774 0.5774
vn 0.1460 -0.3128 -0.9385
vn 0.1460 0.3128 -0.9385
vn 0.1469 0.3674 -0.9184
vn 0.1469 -0.3674 -0.9184
vn 0.1460 0.3128 0.9385
vn 0.1460 -0.3128 0.9385
vn 0.1469 -0.3674 0.9184
vn 0.1469 0.3674 0.9184
vn 0.1460 -0.9385 0.3128
vn 0.1460 -0.9385 -0.3128
vn 0.1469 -0.9184 -0.3674
vn 0.1469 -0.9184 0.3674
vn -0.5774 -0.5774 0.5773
vn -0.5774 0.5773 0.5773
vn -0.5774 0.5774 -0.5773
vn -0.5774 -0.5774 -0.5774
vn -0.1456 -0.9386 -0.3129
vn -0.1456 -0.9386 0.3129
vn -0.1469 -0.9184 0.3674
vn -0.1469 -0.9184 -0.3674
vn -0.1456 0.9386 0.3129
vn -0.1456 0.9386 -0.3129
vn -0.1469 0.9184 -0.3674
vn -0.1469 0.9184 0.3674
vn -0.1456 -0.3129 0.9386
vn -0.1456 0.3129 0.9386
vn -0.1469 0.3674 0.9184
vn -0.1469 -0.3674 0.9184
vn 0.5773 -0.5773 0.5774
vn -0.5774 -0.5774 0.5774
vn -0.3128 -0.9385 0.1460
vn 0.3128 -0.9385 0.1460
vn 0.3674 -0.9184 0.1469
vn -0.3674 -0.9184 0.1469
vn 0.3128 0.9385 0.1460
vn -0.3128 0.9385 0.1460
vn -0.3674 0.9184 0.1469
vn 0.3674 0.9184 0.1469
vn 0.9385 -0.3128 0.1460
vn 0.9385 0.3128 0.1460
vn 0.9184 0.3674 0.1469
vn 0.9184 -0.3674 0.1469
vn 0.5774 -0.5774 -0.5773
vn 0.5774 -0.5774 0.5774
vn -0.5774 -0.5774 -0.5773
vn -0.3128 -0.1460 -0.9385
vn 0.3128 -0.1460 -0.9385
vn 0.3674 -0.1469 -0.9184
vn -0.3674 -0.1469 -0.9184
vn 0.3128 -0.1460 0.9385
vn -0.3128 -0.1460 0.9385
vn -0.3674 -0.1469 0.9184
vn 0.3674 -0.1469 0.9184
vn 0.9385 -0.1460 -0.3128
vn 0.9385 -0.1460 0.3128
vn 0.9184 -0.1469 0.3674
vn 0.9184 -0.1469 -0.3674
vn 0.5774 0.5774 -0.5773
vn 0.5773 -0.5773 -0.5774
vn -0.5774 -0.5773 -0.5774
vn 0.3128 -0.9385 -0.1464
vn -0.3128 -0.9385 -0.1464
vn -0.3674 -0.9184 -0.1469
vn 0.3674 -0.9184 -0.1469
vn -0.3128 0.9385 -0.1464
vn 0.3128 0.9385 -0.1464
vn 0.3674 0.9184 -0.1469
vn -0.3674 0.9184 -0.1469
vn 0.9385 0.3128 -0.1464
vn 0.9385 -0.3128 -0.1464
vn 0.9184 -0.3674 -0.1469
vn 0.9184 0.3674 -0.1469
usemtl Material
s off
f 1//1 80//1 165//1 60//1
f 1//2 60//2 166//2 79//2
f 1//3 79//3 177//3 78//3
f 1//4 78//4 178//4 80//4
f 2//5 72//5 169//5 65//5
f 2//6 65//6 168//6 71//6
f 2//7 71//7 172//7 69//7
f 2//8 69//8 174//8 72//8
f 3//9 104//9 167//9 63//9
f 3//10 63//10 168//10 103//10
f 3//11 103//11 190//11 102//11
f 3//12 102//12 189//12 104//12
f 4//13 96//13 165//13 58//13
f 4//14 58//14 164//14 95//14
f 4//15 95//15 183//15 91//15
f 4//16 91//16 184//16 96//16
f 5//17 112//17 166//17 60//17
f 5//18 60//18 165//18 111//18
f 5//19 111//19 191//19 107//19
f 5//20 107//20 192//20 112//20
f 6//21 88//21 163//21 56//21
f 6//22 56//22 166//22 87//22
f 6//23 87//23 180//23 83//23
f 6//24 83//24 179//24 88//24
f 7//25 120//25 174//25 69//25
f 7//26 69//26 172//26 119//26
f 7//27 119//27 196//27 117//27
f 7//28 117//28 198//28 120//28
f 8//29 71//29 168//29 63//29
f 8//30 63//30 167//30 73//30
f 8//31 73//31 171//31 67//31
f 8//32 67//32 172//32 71//32
f 9//33 74//33 170//33 66//33
f 9//34 66//34 169//34 72//34
f 9//35 72//35 174//35 70//35
f 9//36 70//36 173//36 74//36
f 10//37 73//37 167//37 64//37
f 10//38 64//38 170//38 74//38
f 10//39 74//39 173//39 68//39
f 10//40 68//40 171//40 73//40
f 11//41 152//41 178//41 78//41
f 11//42 78//42 177//42 151//42
f 11//43 151//43 213//43 150//43
f 11//44 150//44 214//44 152//44
f 12//45 81//45 164//45 58//45
f 12//46 58//46 165//46 80//46
f 12//47 80//47 178//47 77//47
f 12//48 77//48 176//48 81//48
f 13//49 79//49 166//49 56//49
f 13//50 56//50 163//50 82//50
f 13//51 82//51 175//51 76//51
f 13//52 76//52 177//52 79//52
f 14//53 82//53 163//53 55//53
f 14//54 55//54 164//54 81//54
f 14//55 81//55 176//55 75//55
f 14//56 75//56 175//56 82//56
f 15//57 160//57 180//57 85//57
f 15//58 85//58 182//58 159//58
f 15//59 159//59 218//59 157//59
f 15//60 157//60 216//60 160//60
f 16//61 89//61 167//61 57//61
f 16//62 57//62 163//62 88//62
f 16//63 88//63 179//63 84//63
f 16//64 84//64 181//64 89//64
f 17//65 90//65 170//65 64//65
f 17//66 64//66 167//66 89//66
f 17//67 89//67 181//67 86//67
f 17//68 86//68 182//68 90//68
f 18//69 87//69 166//69 62//69
f 18//70 62//70 170//70 90//70
f 18//71 90//71 182//71 85//71
f 18//72 85//72 180//72 87//72
f 19//73 144//73 186//73 93//73
f 19//74 93//74 184//74 143//74
f 19//75 143//75 208//75 141//75
f 19//76 141//76 210//76 144//76
f 20//77 98//77 168//77 65//77
f 20//78 65//78 169//78 97//78
f 20//79 97//79 186//79 94//79
f 20//80 94//80 185//80 98//80
f 21//81 97//81 169//81 61//81
f 21//82 61//82 165//82 96//82
f 21//83 96//83 184//83 93//83
f 21//84 93//84 186//84 97//84
f 22//85 95//85 164//85 59//85
f 22//86 59//86 168//86 98//86
f 22//87 98//87 185//87 92//87
f 22//88 92//88 183//88 95//88
f 23//89 128//89 189//89 102//89
f 23//90 102//90 190//90 127//90
f 23//91 127//91 202//91 126//91
f 23//92 126//92 201//92 128//92
f 24//93 103//93 168//93 59//93
f 24//94 59//94 164//94 105//94
f 24//95 105//95 188//95 101//95
f 24//96 101//96 190//96 103//96
f 25//97 106//97 163//97 57//97
f 25//98 57//98 167//98 104//98
f 25//99 104//99 189//99 100//99
f 25//100 100//100 187//100 106//100
f 26//101 105//101 164//101 55//101
f 26//102 55//102 163//102 106//102
f 26//103 106//103 187//103 99//103
f 26//104 99//104 188//104 105//104
f 27//105 136//105 194//105 109//105
f 27//106 109//106 192//106 135//106
f 27//107 135//107 204//107 133//107
f 27//108 133//108 206//108 136//108
f 28//109 111//109 165//109 61//109
f 28//110 61//110 169//110 113//110
f 28//111 113//111 193//111 108//111
f 28//112 108//112 191//112 111//112
f 29//113 113//113 169//113 66//113
f 29//114 66//114 170//114 114//114
f 29//115 114//115 194//115 110//115
f 29//116 110//116 193//116 113//116
f 30//117 114//117 170//117 62//117
f 30//118 62//118 166//118 112//118
f 30//119 112//119 192//119 109//119
f 30//120 109//120 194//120 114//120
f 31//121 115//121 195//121 116//121
f 31//122 116//122 197//122 118//122
f 31//123 118//123 198//123 117//123
f 31//124 117//124 196//124 115//124
f 32//125 119//125 172//125 67//125
f 32//126 67//126 171//126 121//126
f 32//127 121//127 195//127 115//127
f 32//128 115//128 196//128 119//128
f 33//129 122//129 173//129 70//129
f 33//130 70//130 174//130 120//130
f 33//131 120//131 198//131 118//131
f 33//132 118//132 197//132 122//132
f 34//133 121//133 171//133 68//133
f 34//134 68//134 173//134 122//134
f 34//135 122//135 197//135 116//135
f 34//136 116//136 195//136 121//136
f 35//137 123//137 199//137 124//137
f 35//138 124//138 201//138 126//138
f 35//139 126//139 202//139 125//139
f 35//140 125//140 200//140 123//140
f 36//141 129//141 187//141 100//141
f 36//142 100//142 189//142 128//142
f 36//143 128//143 201//143 124//143
f 36//144 124//144 199//144 129//144
f 37//145 127//145 190//145 101//145
f 37//146 101//146 188//146 130//146
f 37//147 130//147 200//147 125//147
f 37//148 125//148 202//148 127//148
f 38//149 130//149 188//149 99//149
f 38//150 99//150 187//150 129//150
f 38//151 129//151 199//151 123//151
f 38//152 123//152 200//152 130//152
f 39//153 131//153 203//153 132//153
f 39//154 132//154 205//154 134//154
f 39//155 134//155 206//155 133//155
f 39//156 133//156 204//156 131//156
f 40//157 135//157 192//157 107//157
f 40//158 107//158 191//158 137//158
f 40//159 137//159 203//159 131//159
f 40//160 131//160 204//160 135//160
f 41//161 138//161 193//161 110//161
f 41//162 110//162 194//162 136//162
f 41//163 136//163 206//163 134//163
f 41//164 134//164 205//164 138//164
f 42//165 137//165 191//165 108//165
f 42//166 108//166 193//166 138//166
f 42//167 138//167 205//167 132//167
f 42//168 132//168 203//168 137//168
f 43//169 139//169 207//169 140//169
f 43//124 140//124 209//124 142//124
f 43//123 142//123 210//123 141//123
f 43//170 141//170 208//170 139//170
f 44//171 143//171 184//171 91//171
f 44//172 91//172 183//172 145//172
f 44//173 145//173 207//173 139//173
f 44//174 139//174 208//174 143//174
f 45//175 146//175 185//175 94//175
f 45//176 94//176 186//176 144//176
f 45//177 144//177 210//177 142//177
f 45//178 142//178 209//178 146//178
f 46//179 145//179 183//179 92//179
f 46//180 92//180 185//180 146//180
f 46//181 146//181 209//181 140//181
f 46//182 140//182 207//182 145//182
f 47//183 148//183 211//183 147//183
f 47//184 147//184 212//184 149//184
f 47//153 149//153 214//153 150//153
f 47//185 150//185 213//185 148//185
f 48//186 151//186 177//186 76//186
f 48//187 76//187 175//187 153//187
f 48//188 153//188 211//188 148//188
f 48//189 148//189 213//189 151//189
f 49//190 154//190 176//190 77//190
f 49//191 77//191 178//191 152//191
f 49//192 152//192 214//192 149//192
f 49//193 149//193 212//193 154//193
f 50//194 153//194 175//194 75//194
f 50//195 75//195 176//195 154//195
f 50//196 154//196 212//196 147//196
f 50//197 147//197 211//197 153//197
f 51//198 158//198 217//198 156//198
f 51//199 156//199 215//199 155//199
f 51//200 155//200 216//200 157//200
f 51//122 157//122 218//122 158//122
f 52//201 161//201 179//201 83//201
f 52//202 83//202 180//202 160//202
f 52//203 160//203 216//203 155//203
f 52//204 155//204 215//204 161//204
f 53//205 159//205 182//205 86//205
f 53//206 86//206 181//206 162//206
f 53//207 162//207 217//207 158//207
f 53//208 158//208 218//208 159//208
f 54//209 162//209 181//209 84//209
f 54//210 84//210 179//210 161//210
f 54//211 161//211 215//211 156//211
f 54//212 156//212 217//212 162//212
