# Blender v2.79 (sub 0) OBJ File: ''
# www.blender.org
mtllib SimpleRamp.mtl
o Cube_Cube.001
v -1.000000 -1.000000 1.000000
v -1.000000 -1.000000 -1.000000
v -1.000000 1.000000 -1.000000
v 1.000000 -1.000000 1.000000
v 1.000000 -1.000000 -1.000000
v 1.000000 1.000000 -1.000000
vn 0.0000 0.0000 -1.0000
vn 0.0000 0.7071 0.7071
vn 0.0000 -1.0000 0.0000
vn -1.0000 0.0000 0.0000
vn 1.0000 0.0000 0.0000
usemtl None
s off
f 2//1 3//1 6//1 5//1
f 6//2 3//2 1//2 4//2
f 2//3 5//3 4//3 1//3
f 2//4 1//4 3//4
f 6//5 4//5 5//5
