# Blender v2.79 (sub 0) OBJ File: ''
# www.blender.org
mtllib Chair#1.mtl
o Cube
v 1.000000 1.303728 -1.000000
v 1.000000 1.303728 1.000000
v -1.000000 1.303728 1.000000
v -1.000000 1.303728 -1.000000
v 1.000000 11.303728 -0.999999
v 0.999999 11.303728 1.000001
v -1.000000 11.303728 1.000000
v -1.000000 11.303728 -1.000000
v 0.999999 13.303728 1.000001
v -1.000000 13.303728 -1.000000
v -1.000000 13.303728 1.000000
v 1.000002 11.303728 -6.000000
v -0.999999 11.303728 -6.000000
v -0.999999 13.303728 -6.000000
v 1.000002 11.303728 -8.000000
v -0.999998 11.303728 -8.000000
v 1.000002 13.303728 -8.000000
v -0.999998 13.303728 -8.000000
v 1.000002 1.303728 -6.000000
v -0.999999 1.303728 -6.000000
v 1.000002 1.303728 -8.000000
v -0.999998 1.303728 -8.000000
v 2.999999 11.303728 1.000001
v 2.999999 13.303728 1.000001
v 3.000002 13.303728 -7.999999
v 3.000002 11.303728 -7.999999
v 4.999999 11.303728 1.000002
v 4.999999 13.303728 1.000002
v 5.000002 13.303728 -7.999998
v 5.000002 11.303728 -7.999998
v 7.000000 11.303728 -0.999997
v 6.999999 11.303728 1.000003
v 7.000000 13.303728 -0.999997
v 6.999999 13.303728 1.000003
v 7.000002 13.303728 -5.999997
v 7.000002 11.303728 -5.999997
v 7.000002 13.303728 -7.999997
v 7.000002 11.303728 -7.999997
v 9.000000 11.303728 -0.999996
v 8.999999 11.303728 1.000004
v 9.000000 13.303728 -0.999996
v 8.999999 13.303728 1.000004
v 9.000002 13.303728 -5.999996
v 9.000002 11.303728 -5.999996
v 9.000002 13.303728 -7.999996
v 9.000002 11.303728 -7.999996
v 7.000002 1.303728 -7.999997
v 7.000002 1.303728 -5.999997
v 9.000002 1.303728 -7.999996
v 9.000002 1.303728 -5.999996
v 7.000000 1.303728 -0.999997
v 6.999999 1.303728 1.000003
v 9.000000 1.303728 -0.999996
v 8.999999 1.303728 1.000004
v 7.000000 23.303728 -0.999997
v 6.999999 23.303728 1.000003
v 9.000002 23.303728 -5.999996
v 7.000002 23.303728 -5.999997
v 9.000000 23.303728 -0.999996
v 7.000002 23.303728 -7.999997
v 8.999999 23.303728 1.000004
v 9.000002 23.303728 -7.999996
v 9.000002 24.303728 -5.999996
v 7.000002 24.303728 -5.999997
v 7.000002 24.303728 -7.999997
v 9.000002 24.303728 -7.999996
v 7.000000 24.303728 -0.999997
v 6.999999 24.303728 1.000003
v 9.000000 24.303728 -0.999996
v 8.999999 24.303728 1.000004
v 9.000002 26.303728 -5.999996
v 7.000002 26.303728 -5.999997
v 7.000000 26.303728 -0.999997
v 9.000000 26.303728 -0.999996
v -0.999998 6.303728 -8.000000
v -0.999999 6.303728 -6.000000
v 1.000002 6.303728 -6.000000
v 1.000002 6.303728 -8.000000
v 1.000000 6.303199 -1.000000
v 1.000000 6.303199 1.000000
v -1.000000 6.303199 1.000000
v -1.000000 6.303199 -1.000000
v 8.999999 6.303728 1.000004
v 9.000000 6.303728 -0.999996
v 7.000000 6.303728 -0.999997
v 6.999999 6.303728 1.000003
v 7.000002 6.303728 -7.999997
v 7.000002 6.303728 -5.999997
v 9.000002 6.303728 -7.999996
v 9.000002 6.303728 -5.999996
v 1.000000 8.803463 -1.000000
v 1.000000 8.803463 1.000000
v -1.000000 8.803463 1.000000
v -1.000000 8.803463 -1.000000
v 9.000000 8.802001 -0.999996
v 7.000000 8.802001 -0.999997
v 8.999999 8.802001 1.000004
v 6.999999 8.802001 1.000003
v 8.999999 3.803728 1.000004
v 6.999999 3.803728 1.000003
v 9.000000 3.803728 -0.999996
v 7.000000 3.803728 -0.999997
v 1.000000 3.802923 -1.000000
v 1.000000 3.802923 1.000000
v -1.000000 3.802923 1.000000
v -1.000000 3.802923 -1.000000
v -0.999998 3.803728 -8.000000
v -0.999999 3.803728 -6.000000
v 1.000002 3.803728 -6.000000
v 1.000002 3.803728 -8.000000
v -0.999999 8.842153 -6.000000
v 1.000002 8.842153 -6.000000
v 1.000002 8.842153 -8.000000
v -0.999998 8.842153 -8.000000
v 7.000002 3.803728 -7.999997
v 9.000002 3.803728 -7.999996
v 9.000002 3.803728 -5.999996
v 7.000002 3.803728 -5.999997
v 7.000002 8.803728 -5.999997
v 7.000002 8.803728 -7.999997
v 9.000002 8.803728 -7.999996
v 9.000002 8.803728 -5.999996
vn 0.0000 -1.0000 -0.0000
vn 1.0000 0.0000 0.0000
vn -0.0000 -0.0000 1.0000
vn -1.0000 -0.0000 -0.0000
vn 0.0000 0.0000 -1.0000
vn 0.0000 1.0000 0.0000
usemtl Material
s off
f 1//1 2//1 3//1 4//1
f 91//2 5//2 6//2 92//2
f 92//3 6//3 7//3 93//3
f 93//4 7//4 8//4 94//4
f 103//5 1//5 4//5 106//5
f 17//5 25//5 29//5 37//5 45//5 46//5 38//5 30//5 26//5 15//5 16//5 18//5
f 108//4 107//4 22//4 20//4
f 10//6 11//6 9//6 24//6 28//6 34//6 33//6 35//6 37//6 29//6 25//6 17//6 18//6 14//6
f 19//1 20//1 22//1 21//1
f 109//3 108//3 20//3 19//3
f 110//2 109//2 19//2 21//2
f 107//5 110//5 21//5 22//5
f 40//2 39//2 44//2 46//2 45//2 43//2 41//2 42//2
f 43//2 45//2 62//2 57//2 59//2 61//2 42//2 41//2
f 118//4 115//4 47//4 48//4
f 101//2 99//2 54//2 53//2
f 34//3 42//3 61//3 56//3
f 7//3 6//3 23//3 27//3 32//3 40//3 42//3 34//3 28//3 24//3 9//3 11//3
f 48//1 47//1 49//1 50//1
f 115//5 116//5 49//5 47//5
f 116//2 117//2 50//2 49//2
f 117//3 118//3 48//3 50//3
f 52//1 51//1 53//1 54//1
f 102//5 101//5 53//5 51//5
f 99//3 100//3 52//3 54//3
f 100//4 102//4 51//4 52//4
f 55//4 56//4 68//4 67//4
f 58//4 55//4 73//4 72//4
f 62//5 60//5 65//5 66//5
f 5//1 8//1 13//1 12//1 15//1 26//1 30//1 38//1 36//1 44//1 39//1 31//1 32//1 27//1 23//1 6//1
f 45//5 37//5 60//5 62//5
f 8//4 7//4 11//4 10//4 14//4 18//4 16//4 13//4
f 35//4 33//4 34//4 56//4 55//4 58//4 60//4 37//4
f 65//6 64//6 63//6 66//6
f 57//2 62//2 66//2 63//2
f 58//3 57//3 63//3 64//3
f 60//4 58//4 64//4 65//4
f 67//6 68//6 70//6 69//6
f 61//2 59//2 69//2 70//2
f 56//3 61//3 70//3 68//3
f 59//5 55//5 67//5 69//5
f 72//6 73//6 74//6 71//6
f 57//5 58//5 72//5 71//5
f 59//2 57//2 71//2 74//2
f 55//3 59//3 74//3 73//3
f 114//5 113//5 78//5 75//5
f 113//2 112//2 77//2 78//2
f 112//3 111//3 76//3 77//3
f 111//4 114//4 75//4 76//4
f 91//5 79//5 82//5 94//5
f 105//4 81//4 82//4 106//4
f 104//3 80//3 81//3 105//3
f 103//2 79//2 80//2 104//2
f 98//4 96//4 85//4 86//4
f 97//3 98//3 86//3 83//3
f 96//5 95//5 84//5 85//5
f 95//2 97//2 83//2 84//2
f 122//3 119//3 88//3 90//3
f 121//2 122//2 90//2 89//2
f 120//5 121//5 89//5 87//5
f 119//4 120//4 87//4 88//4
f 5//5 91//5 94//5 8//5
f 81//4 93//4 94//4 82//4
f 80//3 92//3 93//3 81//3
f 79//2 91//2 92//2 80//2
f 39//2 40//2 97//2 95//2
f 31//5 39//5 95//5 96//5
f 40//3 32//3 98//3 97//3
f 32//4 31//4 96//4 98//4
f 86//4 85//4 102//4 100//4
f 83//3 86//3 100//3 99//3
f 85//5 84//5 101//5 102//5
f 84//2 83//2 99//2 101//2
f 1//2 103//2 104//2 2//2
f 2//3 104//3 105//3 3//3
f 3//4 105//4 106//4 4//4
f 79//5 103//5 106//5 82//5
f 75//5 78//5 110//5 107//5
f 78//2 77//2 109//2 110//2
f 77//3 76//3 108//3 109//3
f 76//4 75//4 107//4 108//4
f 13//4 16//4 114//4 111//4
f 12//3 13//3 111//3 112//3
f 15//2 12//2 112//2 113//2
f 16//5 15//5 113//5 114//5
f 90//3 88//3 118//3 117//3
f 89//2 90//2 117//2 116//2
f 87//5 89//5 116//5 115//5
f 88//4 87//4 115//4 118//4
f 36//4 38//4 120//4 119//4
f 38//5 46//5 121//5 120//5
f 46//2 44//2 122//2 121//2
f 44//3 36//3 119//3 122//3
