# Blender v2.79 (sub 0) OBJ File: ''
# www.blender.org
mtllib Gun(2).mtl
o Cube.001
v -0.098429 0.914005 2.051241
v -0.098429 1.267629 2.051241
v -0.098429 0.914005 1.697618
v -0.098429 1.267629 1.697618
v 0.107579 0.914005 2.051241
v 0.107579 1.267629 2.051241
v 0.107579 0.914005 1.697618
v 0.107579 1.267629 1.697618
vn -1.0000 0.0000 0.0000
vn 0.0000 0.0000 -1.0000
vn 1.0000 0.0000 0.0000
vn 0.0000 0.0000 1.0000
vn 0.0000 -1.0000 0.0000
vn 0.0000 1.0000 0.0000
usemtl None
s off
f 1//1 2//1 4//1 3//1
f 3//2 4//2 8//2 7//2
f 7//3 8//3 6//3 5//3
f 5//4 6//4 2//4 1//4
f 3//5 7//5 5//5 1//5
f 8//6 4//6 2//6 6//6
o Cube
v 0.000000 -1.000000 -0.000000
v -0.000000 1.000000 0.000000
v 1.000000 0.000000 0.000000
v -0.000000 -1.000000 2.000000
v -1.000000 0.000000 -0.000000
v 0.000000 1.000000 -2.000000
v -1.000001 -0.000000 3.000000
v -0.000001 1.000000 2.000000
v -1.000000 -0.000000 2.000000
v 0.999999 -0.000000 2.000000
v -0.999999 0.000001 -4.000000
v -1.000000 0.000000 -2.000000
v 0.000000 -1.000000 -2.000000
v 1.000000 0.000000 -2.000000
v 0.000001 1.000001 -5.807832
v -0.999999 -4.540207 -5.318820
v 0.000001 1.000001 -4.000000
v 1.000001 0.000001 -4.000000
v 0.000002 0.000001 -6.615664
v 1.000001 0.000001 -5.807832
v -0.999999 0.000001 -5.807832
v 0.000001 -0.999999 -5.807832
v -0.999999 -5.045951 -5.507223
v 0.000001 -4.540207 -4.318820
v 1.000001 -4.540207 -5.318820
v 0.000001 -4.540206 -6.318820
v 0.000001 -5.045950 -5.507223
v 0.000001 -5.045951 -4.507223
v 1.000001 -5.045951 -5.507223
v 0.000001 -5.045950 -6.507223
v -0.520240 -0.000000 3.205922
v -0.000001 -0.520240 3.010594
v -0.520240 -0.000000 3.010594
v 0.999999 -0.000000 3.000000
v -0.000001 0.520239 3.401249
v -0.000001 -0.520240 3.205922
v -0.000001 0.520239 3.205922
v 0.520238 -0.000000 3.205922
v 0.283100 -0.000000 3.401250
v -0.000001 -0.520240 3.401249
v -0.000001 0.283101 3.401249
v 0.760119 -0.000000 3.005297
v -0.760121 -0.000000 3.005297
v -0.000001 -0.760120 3.005297
v -0.000001 0.760119 3.005297
v -0.000001 -1.000000 3.000000
v -0.000001 0.520239 3.010594
v 0.520239 -0.000000 3.010594
v -0.000001 1.000000 3.000000
v -0.000001 -0.401671 3.401249
v -0.000001 0.401670 3.401249
v 0.401669 -0.000000 3.401250
v -0.401671 -0.000000 3.401249
v 0.520238 -0.000000 3.401250
v -0.283102 -0.000000 3.401249
v -0.000001 -0.283102 3.401250
v -0.520240 -0.000000 3.401249
v 0.000001 -2.517231 -5.565209
v 1.002276 -2.478235 -4.583932
v -0.733664 -2.511952 -3.588349
v -0.996235 -2.471050 -4.615427
v -0.998699 -1.494973 -4.230294
v 0.002540 -1.488812 -3.278371
v 1.001241 -1.499582 -4.236481
v 0.000001 -1.505743 -5.188403
v 0.000001 -3.528718 -5.942014
v 1.001036 -3.495883 -4.912660
v 0.003500 -3.460473 -3.920986
v -0.997535 -3.493308 -4.950341
v 0.010712 -2.274638 -2.880369
v -0.003732 -2.913711 -3.571429
v 0.003733 -2.120751 -3.558988
v 0.733665 -2.522511 -3.542068
v 0.492290 -2.283149 -1.748562
v -0.463830 -2.566730 -2.854362
v 0.474446 -2.574431 -2.845384
v -0.000097 -2.866523 -2.819377
v 0.032147 -1.880106 -0.745625
v 0.020446 -2.566241 -1.702438
v 0.025215 -1.991401 -1.783067
v -0.446629 -2.274493 -1.736943
v 0.047387 -0.322722 0.029868
v 0.036917 -1.237132 -0.914833
v -0.434928 -1.554291 -0.824419
v 0.503992 -1.562947 -0.836039
v 0.049947 -0.121937 0.518796
v -0.424457 -0.605815 0.075993
v 0.514462 -0.614471 0.064373
v 0.042617 -0.897563 0.110497
v 0.750000 -0.750000 0.000000
v 0.000000 -1.000000 -1.000000
v 1.000000 0.000000 -1.000000
v -0.000000 -1.000000 1.000000
v 1.000000 -0.000000 1.000000
v -0.750000 -0.750000 -0.000000
v -1.000000 -0.000000 1.000000
v -1.000000 0.000000 -1.000000
v 0.750000 0.750000 0.000000
v 0.000000 1.000000 -1.000000
v -0.000000 1.000000 1.000000
v -0.750000 0.750000 -0.000000
v -0.000001 -1.000000 2.750000
v 0.999999 -0.000000 2.750000
v -1.000001 -0.000000 2.750000
v -0.000001 1.000000 2.750000
v 0.750000 -0.750000 2.000000
v -0.750000 -0.750000 2.000000
v -0.750001 0.750000 2.000000
v 0.749999 0.750000 2.000000
v 0.000636 -1.122203 -2.819593
v 1.000001 0.000000 -3.000000
v -0.999999 0.000000 -3.000000
v 0.000001 1.000000 -3.000000
v 0.750001 0.750000 -2.000000
v -0.750000 0.750000 -2.000000
v -0.749999 -0.750000 -2.000000
v 0.750000 -0.750000 -2.000000
v 0.000001 -1.126435 -5.249059
v 1.000001 0.000001 -4.951958
v -0.999999 0.000001 -4.951958
v 0.000001 1.000001 -4.951958
v -0.749999 0.750001 -4.000000
v -0.999674 -0.873743 -4.057574
v 1.000311 -0.874895 -4.059120
v 0.750001 0.750001 -4.000000
v 0.000002 -0.749999 -6.413706
v 0.750002 0.000001 -6.413706
v -0.749998 0.000001 -6.413706
v 0.000002 0.750001 -6.413705
v 0.750002 0.750001 -5.807832
v -0.749999 0.750001 -5.807832
v 0.750001 -0.749999 -5.807832
v -0.749999 -0.749999 -5.807832
v 0.000001 -4.919515 -4.460122
v 0.000001 -4.919514 -6.460123
v -0.999999 -4.919515 -5.460123
v 1.000001 -4.919515 -5.460122
v -0.749999 -4.540206 -6.068820
v -0.747740 -1.488048 -3.513259
v 0.752186 -1.493809 -3.520992
v 0.750311 -1.504203 -4.950422
v 0.000001 -5.045951 -4.757223
v 0.000001 -5.045950 -6.257223
v -0.749999 -5.045951 -5.507223
v 0.750001 -5.045951 -5.507223
v -0.749999 -5.045950 -6.257223
v -0.749999 -5.045951 -4.757223
v 0.750001 -5.045951 -4.757223
v 0.750001 -5.045950 -6.257223
v -0.000001 -0.520240 3.059426
v 0.520239 -0.000000 3.059426
v -0.520240 -0.000000 3.059426
v -0.000001 0.520239 3.059426
v -0.390180 -0.390180 3.010594
v -0.390180 0.390179 3.010594
v 0.749999 -0.750000 3.000000
v 0.749999 0.750000 3.000000
v -0.000001 -0.520240 3.352417
v 0.520238 -0.000000 3.352418
v -0.520240 -0.000000 3.352417
v -0.000001 0.520239 3.352417
v -0.390180 -0.390180 3.205922
v -0.390181 0.390179 3.205922
v 0.390179 -0.390180 3.205922
v 0.390178 0.390179 3.205922
v -0.000001 -0.283102 3.401249
v 0.283100 -0.000000 3.401250
v -0.283102 -0.000000 3.401249
v -0.000001 0.283101 3.401249
v -0.390181 -0.390180 3.401249
v 0.390179 -0.390180 3.401250
v -0.212327 0.212326 3.401249
v 0.212325 0.212326 3.401249
v -0.000001 -0.940030 3.001324
v 0.940029 -0.000000 3.001325
v -0.940031 -0.000000 3.001324
v -0.000001 0.940030 3.001324
v -0.000001 -0.580210 3.009270
v 0.580209 -0.000000 3.009270
v -0.580210 -0.000000 3.009270
v -0.000001 0.580209 3.009270
v 0.570089 0.570090 3.005297
v 0.570089 -0.570090 3.005297
v -0.570091 -0.570090 3.005297
v -0.570091 0.570090 3.005297
v 0.390179 -0.390180 3.010594
v -0.750001 -0.750000 3.000000
v -0.750001 0.750000 3.000000
v 0.390179 0.390179 3.010594
v -0.000001 -0.490597 3.401249
v 0.490596 -0.000000 3.401250
v -0.490598 -0.000000 3.401249
v -0.000001 0.490597 3.401249
v -0.000001 -0.312744 3.401250
v 0.312743 -0.000000 3.401250
v -0.312745 -0.000000 3.401249
v -0.000001 0.312743 3.401249
v 0.301252 -0.301253 3.401250
v -0.301254 -0.301253 3.401249
v -0.301254 0.301253 3.401249
v 0.301252 0.301253 3.401250
v 0.212325 -0.212326 3.401250
v -0.390181 0.390179 3.401249
v 0.390178 0.390179 3.401250
v -0.212327 -0.212326 3.401250
v -0.749058 -2.505686 -5.327764
v -0.746044 -3.467394 -4.197166
v 0.752170 -3.470613 -4.150064
v 0.750260 -3.520510 -5.684675
v 0.000001 -3.022975 -5.753612
v 1.001864 -2.972182 -4.721599
v 0.003442 -3.036788 -3.728881
v -0.995978 -2.967166 -4.776574
v -0.928711 -2.458185 -3.883766
v 0.936261 -2.469806 -3.832827
v 0.750570 -2.507482 -5.319889
v -0.749674 -1.503051 -4.948876
v -0.997433 -1.986479 -4.441724
v 0.004108 -1.891204 -3.487711
v 1.002120 -1.994037 -4.441584
v 0.000001 -2.011487 -5.376806
v -0.749383 -3.519866 -5.694097
v -0.749999 -4.540207 -4.568820
v 0.750001 -4.540207 -4.568820
v 0.750001 -4.540206 -6.068820
v 0.000001 -4.034462 -6.130417
v 1.000260 -4.026254 -5.123078
v 0.000876 -4.017401 -4.125160
v -0.999383 -4.025610 -5.132499
v -0.008189 -2.915528 -3.313353
v -0.536801 -2.569188 -3.366206
v 0.533417 -2.577127 -3.337603
v 0.004804 -2.230786 -3.390456
v -0.552544 -2.811379 -3.603346
v -0.547951 -2.215165 -3.561782
v 0.546947 -2.817804 -3.536402
v 0.553551 -2.224578 -3.559304
v 0.012222 -2.754244 -2.234180
v -0.454018 -2.477518 -2.246660
v 0.484741 -2.485935 -2.253131
v 0.018502 -2.209209 -2.265611
v -0.342653 -2.345497 -2.870962
v 0.361376 -2.351751 -2.874527
v -0.350439 -2.789888 -2.835517
v 0.352947 -2.795187 -2.818486
v 0.026459 -2.281775 -1.210727
v -0.440616 -1.964476 -1.278449
v 0.498304 -1.973133 -1.290069
v 0.031229 -1.655834 -1.357790
v 0.376714 -2.066502 -1.777346
v 0.373137 -2.497632 -1.716874
v -0.331053 -2.491140 -1.708159
v -0.327475 -2.060009 -1.768631
v 0.037527 -1.404335 -0.305695
v -0.429547 -1.087037 -0.373417
v 0.509372 -1.095693 -0.385037
v 0.042297 -0.778395 -0.452758
v 0.384838 -1.802980 -0.771133
v -0.319351 -1.796488 -0.762419
v -0.315774 -1.314258 -0.889324
v 0.388416 -1.320750 -0.898039
v 0.046922 -0.442520 0.414734
v -0.303384 -0.240742 0.411000
v 0.400806 -0.247234 0.402286
v 0.050500 -0.045456 0.398552
v -0.305304 -0.391331 0.044304
v 0.398886 -0.397824 0.035590
v -0.308881 -0.822462 0.104776
v 0.395308 -0.828954 0.096061
v 0.750000 -0.750000 -1.000000
v 0.750000 -0.750000 1.000000
v -0.750000 -0.750000 1.000000
v -0.750000 -0.750000 -1.000000
v 0.750000 0.750000 -1.000000
v 0.750000 0.750000 1.000000
v -0.750000 0.750000 1.000000
v -0.750000 0.750000 -1.000000
v 0.749999 -0.750000 2.750000
v -0.750001 -0.750000 2.750000
v 0.749999 0.750000 2.750000
v -0.750001 0.750000 2.750000
v 0.840350 -0.919009 -3.043359
v -0.839638 -0.918087 -3.042122
v 0.750001 0.750000 -3.000000
v -0.749999 0.750000 -3.000000
v 0.840051 -0.920672 -5.001321
v -0.839947 -0.920487 -5.001074
v 0.750001 0.750001 -4.951958
v -0.749999 0.750001 -4.951958
v 0.555557 -0.555554 -6.256628
v -0.555554 -0.555554 -6.256628
v 0.555557 0.555557 -6.256628
v -0.555554 0.555557 -6.256628
v 0.750001 -4.919515 -4.710122
v -0.749999 -4.919515 -4.710123
v 0.750001 -4.919515 -6.210122
v -0.749999 -4.919515 -6.210122
v 0.555556 -5.045951 -4.951668
v -0.555555 -5.045951 -4.951668
v 0.555557 -5.045951 -6.062778
v -0.555554 -5.045951 -6.062779
v 0.390179 -0.390180 3.059426
v -0.390180 -0.390180 3.059426
v 0.390179 0.390179 3.059426
v -0.390180 0.390179 3.059426
v 0.390179 -0.390180 3.352418
v -0.390180 -0.390180 3.352417
v 0.390178 0.390179 3.352418
v -0.390181 0.390179 3.352417
v 0.212325 -0.212326 3.401249
v -0.212327 -0.212326 3.401249
v 0.212325 0.212326 3.401249
v -0.212327 0.212326 3.401249
v 0.705022 -0.705023 3.001324
v -0.705023 -0.705023 3.001324
v 0.705021 0.705022 3.001324
v -0.705023 0.705022 3.001324
v 0.435156 -0.435157 3.009270
v -0.435158 -0.435157 3.009269
v 0.435156 0.435157 3.009270
v -0.435158 0.435157 3.009270
v 0.367947 -0.367948 3.401250
v -0.367949 -0.367948 3.401249
v 0.367947 0.367948 3.401250
v -0.367949 0.367948 3.401249
v 0.234557 -0.234558 3.401250
v -0.234559 -0.234558 3.401249
v 0.234557 0.234557 3.401250
v -0.234559 0.234557 3.401249
v -0.748994 -3.009023 -5.509352
v -0.802124 -2.917058 -3.919264
v 0.810697 -2.924572 -3.828398
v 0.750467 -3.010277 -5.495608
v -0.803864 -1.990114 -3.669009
v 0.811963 -2.002091 -3.674440
v 0.750531 -2.007124 -5.143001
v -0.749357 -2.005235 -5.143036
v -0.749845 -4.032249 -5.880938
v -0.749010 -4.019132 -4.381705
v 0.750543 -4.019937 -4.369929
v 0.750066 -4.032411 -5.878582
v -0.407570 -2.827444 -3.344182
v 0.394441 -2.832427 -3.301799
v -0.398478 -2.312917 -3.381078
v 0.404839 -2.319841 -3.380558
v -0.338987 -2.683018 -2.236970
v 0.365001 -2.689212 -2.239248
v -0.334358 -2.274122 -2.257968
v 0.369791 -2.280555 -2.265395
v -0.325039 -2.200286 -1.224753
v 0.379150 -2.206778 -1.233468
v -0.321462 -1.730831 -1.335050
v 0.382727 -1.737323 -1.343765
v -0.313971 -1.322846 -0.319721
v 0.390218 -1.329339 -0.328435
v -0.310394 -0.853391 -0.430018
v 0.393796 -0.859883 -0.438733
v -0.214386 -0.488620 0.335195
v 0.307235 -0.493429 0.328740
v -0.211737 -0.184405 0.310085
v 0.309885 -0.189214 0.303630
vn 0.3162 -0.9487 0.0000
vn -0.3162 -0.9487 -0.0000
vn 0.3162 0.9487 0.0000
vn -0.3162 0.9487 -0.0000
vn 0.9487 -0.3162 0.0000
vn 0.9487 0.3162 0.0000
vn -0.9487 -0.3162 -0.0000
vn -0.9487 0.3162 -0.0000
vn -0.0221 -0.0074 0.9997
vn -0.0221 0.0074 0.9997
vn -0.9927 -0.0933 0.0768
vn -0.9931 -0.0839 -0.0816
vn -0.9688 -0.2399 0.0623
vn -0.2918 -0.9428 0.1610
vn 0.2915 -0.9428 0.1616
vn 0.9689 -0.2394 0.0626
vn 0.3374 0.8436 -0.4177
vn -0.3374 0.8436 -0.4177
vn -0.9425 -0.1120 0.3147
vn -0.9421 0.1158 -0.3146
vn -0.9422 0.1170 -0.3141
vn -0.9422 -0.1170 0.3141
vn 0.9927 -0.0926 0.0768
vn 0.9931 -0.0833 -0.0820
vn 0.2939 0.2939 -0.9095
vn 0.2939 -0.2939 -0.9095
vn -0.2939 -0.2939 -0.9095
vn -0.2939 0.2939 -0.9095
vn 0.9689 -0.2355 -0.0767
vn 0.8436 -0.3374 -0.4177
vn 0.8436 0.3374 -0.4177
vn -0.9688 -0.2356 -0.0766
vn -0.8436 0.3374 -0.4177
vn -0.8436 -0.3374 -0.4177
vn 0.3004 -0.9277 -0.2217
vn -0.3006 -0.9277 -0.2215
vn -0.3374 -0.8436 -0.4177
vn 0.3374 -0.8436 -0.4177
vn -0.0000 -1.0000 0.0000
vn 0.2945 -0.3370 0.8943
vn -0.3021 -0.3262 0.8957
vn -0.2982 -0.3332 0.8945
vn 0.2982 -0.3332 0.8945
vn 0.9422 0.1181 -0.3135
vn 0.9419 -0.1204 0.3136
vn 0.9422 -0.1170 0.3141
vn 0.9422 0.1170 -0.3141
vn -0.2976 0.3323 -0.8950
vn 0.2986 0.3340 -0.8940
vn 0.2982 0.3332 -0.8945
vn -0.2982 0.3332 -0.8945
vn -0.0074 -0.0221 0.9997
vn 0.0074 -0.0221 0.9997
vn 0.0221 0.0074 0.9997
vn 0.0221 -0.0074 0.9997
vn 0.0000 0.0000 1.0000
vn -0.9901 0.1402 0.0000
vn 0.0074 0.0221 0.9997
vn -0.0074 0.0221 0.9997
vn 0.0000 0.9765 0.2156
vn -0.2824 0.9593 0.0000
vn 0.2824 0.9592 0.0106
vn -0.2792 0.3338 -0.9004
vn 0.2845 0.3272 -0.9011
vn 0.2964 0.3243 -0.8983
vn -0.2839 0.3301 -0.9003
vn 0.9373 0.1076 -0.3314
vn 0.9832 0.0761 0.1659
vn 0.9757 -0.1517 0.1578
vn 0.9427 0.0997 -0.3185
vn -0.6559 0.0283 0.7543
vn -0.7463 -0.3409 0.5717
vn -0.7684 -0.4215 0.4815
vn -0.6356 0.3579 0.6841
vn -0.9837 0.0582 0.1704
vn -0.9356 0.1195 -0.3323
vn -0.9385 0.1118 -0.3268
vn -0.9724 -0.1634 0.1664
vn -0.9553 -0.1947 0.2224
vn -0.9702 -0.0498 -0.2370
vn -0.9346 0.1331 -0.3297
vn -0.9569 -0.0527 0.2856
vn 0.2818 -0.6895 0.6672
vn -0.2807 -0.6903 0.6669
vn -0.2205 -0.3536 0.9090
vn 0.2251 -0.3475 0.9103
vn 0.9698 -0.0462 -0.2394
vn 0.9563 -0.1906 0.2217
vn 0.9579 -0.0435 0.2837
vn 0.9334 0.1338 -0.3331
vn -0.3070 -0.1393 -0.9415
vn 0.3057 -0.1376 -0.9421
vn 0.2809 0.3392 -0.8978
vn -0.2813 0.3405 -0.8972
vn -0.2901 0.3299 -0.8984
vn 0.3022 0.3319 -0.8936
vn 0.3007 0.3354 -0.8928
vn -0.2950 0.3306 -0.8965
vn 0.9436 0.1134 -0.3111
vn 0.9492 -0.1773 0.2601
vn 0.9415 -0.1266 0.3123
vn 0.9426 0.1200 -0.3116
vn 0.2119 -0.4675 0.8582
vn -0.2879 -0.4296 0.8559
vn -0.3164 -0.3124 0.8957
vn 0.2804 -0.3445 0.8959
vn -0.9492 -0.1614 0.2701
vn -0.9405 0.1126 -0.3206
vn -0.9417 0.1139 -0.3166
vn -0.9429 -0.1030 0.3168
vn 0.2138 0.9736 0.0805
vn -0.1954 0.9770 0.0850
vn -0.1902 0.9760 -0.1063
vn 0.2065 0.9721 -0.1113
vn -0.2203 -0.8293 0.5136
vn 0.1534 -0.8393 0.5217
vn 0.1833 -0.9827 0.0256
vn -0.1981 -0.9800 0.0199
vn 0.1390 0.0165 0.9902
vn -0.1346 0.0027 0.9909
vn -0.1479 0.8206 0.5520
vn 0.1606 0.8182 0.5520
vn 0.7321 -0.2965 0.6133
vn 0.6216 0.1040 0.7764
vn 0.5918 0.4046 0.6972
vn 0.7443 -0.4000 0.5349
vn 0.8634 -0.4753 0.1693
vn 0.8675 0.4541 -0.2033
vn 0.8721 0.3922 -0.2928
vn 0.8739 -0.4148 0.2535
vn -0.8685 0.4801 0.1236
vn -0.8898 -0.4373 0.1306
vn -0.8814 -0.4636 0.0909
vn -0.8701 0.4901 -0.0516
vn 0.8780 -0.4660 0.1095
vn 0.8820 0.4597 0.1040
vn 0.8831 0.4631 -0.0753
vn 0.8700 -0.4888 0.0645
vn -0.2194 -0.9707 0.0981
vn 0.1979 -0.9758 0.0929
vn 0.1877 -0.9661 0.1772
vn -0.2075 -0.9611 0.1821
vn -0.2016 -0.7383 0.6437
vn 0.2035 -0.7404 0.6406
vn 0.1934 -0.6692 0.7175
vn -0.1884 -0.6675 0.7204
vn -0.1961 -0.9222 0.3333
vn 0.1845 -0.9256 0.3304
vn 0.1982 -0.8452 0.4963
vn -0.2017 -0.8425 0.4996
vn 0.1901 0.8960 -0.4013
vn -0.1826 0.8994 -0.3972
vn -0.1899 0.7777 -0.5993
vn 0.1896 0.7752 -0.6026
vn -0.8613 0.4732 -0.1853
vn -0.8692 -0.4578 0.1869
vn -0.8772 -0.3996 0.2661
vn -0.8694 0.4072 -0.2800
vn 0.1772 0.7094 -0.6822
vn -0.1805 0.7108 -0.6798
vn -0.1986 0.7935 -0.5753
vn 0.1994 0.7918 -0.5773
vn 0.1970 0.7131 -0.6728
vn -0.2000 0.7152 -0.6697
vn -0.1972 0.6950 -0.6914
vn 0.1933 0.6933 -0.6942
vn -0.8770 0.3593 -0.3191
vn -0.8809 -0.3484 0.3204
vn -0.8706 -0.3335 0.3616
vn -0.8708 0.3494 -0.3459
vn 0.8787 -0.3623 0.3109
vn 0.8790 0.3455 -0.3286
vn 0.8728 0.3365 -0.3534
vn 0.8688 -0.3462 0.3541
vn 0.4717 0.8247 0.3120
vn -0.4502 0.8358 0.3143
vn -0.1957 -0.3226 0.9261
vn 0.2117 -0.3249 0.9217
vn -0.8470 0.3765 -0.3752
vn -0.8408 -0.3551 0.4086
vn -0.6429 -0.3520 0.6802
vn -0.8189 0.5324 -0.2144
vn 0.8388 -0.3668 0.4023
vn 0.8495 0.3644 -0.3815
vn 0.8260 0.5199 -0.2178
vn 0.6472 -0.3599 0.6721
vn -0.1619 -0.6314 0.7584
vn 0.1686 -0.6326 0.7559
vn 0.1509 -0.5444 0.8251
vn -0.1409 -0.5433 0.8276
usemtl Material
s off
f 9//7 99//7 278//7 98//7
f 9//7 98//7 279//7 101//7
f 9//8 101//8 280//8 103//8
f 9//8 103//8 281//8 99//8
f 10//9 106//9 282//9 107//9
f 10//10 107//10 285//10 109//10
f 10//10 109//10 284//10 108//10
f 10//9 108//9 283//9 106//9
f 11//11 98//11 278//11 100//11
f 11//12 100//12 282//12 106//12
f 11//12 106//12 283//12 102//12
f 11//11 102//11 279//11 98//11
f 12//8 115//8 280//8 101//8
f 12//7 101//7 279//7 114//7
f 12//7 114//7 286//7 110//7
f 12//8 110//8 287//8 115//8
f 13//13 103//13 280//13 104//13
f 13//14 104//14 284//14 109//14
f 13//14 109//14 285//14 105//14
f 13//13 105//13 281//13 103//13
f 14//10 123//10 285//10 107//10
f 14//9 107//9 282//9 122//9
f 14//9 122//9 292//9 121//9
f 14//10 121//10 293//10 123//10
f 15//14 196//14 289//14 112//14
f 15//13 112//13 287//13 195//13
f 15//15 195//15 323//15 184//15
f 15//16 184//16 325//16 196//16
f 16//9 117//9 283//9 108//9
f 16//10 108//10 284//10 116//10
f 16//10 116//10 289//10 113//10
f 16//9 113//9 288//9 117//9
f 17//14 116//14 284//14 104//14
f 17//13 104//13 280//13 115//13
f 17//13 115//13 287//13 112//13
f 17//14 112//14 289//14 116//14
f 18//11 114//11 279//11 102//11
f 18//12 102//12 283//12 117//12
f 18//12 117//12 288//12 111//12
f 18//11 111//11 286//11 114//11
f 19//17 131//17 291//17 120//17
f 19//14 120//14 293//14 130//14
f 19//14 130//14 297//14 128//14
f 19//18 128//18 295//18 131//18
f 20//13 124//13 281//13 105//13
f 20//14 105//14 285//14 123//14
f 20//14 123//14 293//14 120//14
f 20//19 120//19 291//19 124//19
f 21//7 125//7 278//7 99//7
f 21//8 99//8 281//8 124//8
f 21//20 124//20 291//20 118//20
f 21//21 118//21 290//21 125//21
f 22//12 122//12 282//12 100//12
f 22//11 100//11 278//11 125//11
f 22//22 125//22 290//22 119//22
f 22//12 119//12 292//12 122//12
f 23//10 139//10 297//10 129//10
f 23//9 129//9 296//9 138//9
f 23//23 138//23 300//23 137//23
f 23//24 137//24 301//24 139//24
f 24//25 231//25 347//25 237//25
f 24//26 237//26 346//26 146//26
f 24//27 146//27 305//27 144//27
f 24//28 144//28 303//28 231//28
f 25//10 130//10 293//10 121//10
f 25//9 121//9 292//9 133//9
f 25//9 133//9 296//9 129//9
f 25//10 129//10 297//10 130//10
f 26//12 133//12 292//12 119//12
f 26//29 119//29 290//29 132//29
f 26//30 132//30 294//30 127//30
f 26//12 127//12 296//12 133//12
f 27//31 137//31 300//31 135//31
f 27//32 135//32 298//32 134//32
f 27//33 134//33 299//33 136//33
f 27//34 136//34 301//34 137//34
f 28//12 138//12 296//12 127//12
f 28//35 127//35 294//35 140//35
f 28//36 140//36 298//36 135//36
f 28//37 135//37 300//37 138//37
f 29//38 141//38 295//38 128//38
f 29//14 128//14 297//14 139//14
f 29//39 139//39 301//39 136//39
f 29//40 136//40 299//40 141//40
f 30//41 140//41 294//41 126//41
f 30//42 126//42 295//42 141//42
f 30//43 141//43 299//43 134//43
f 30//44 134//44 298//44 140//44
f 31//28 155//28 303//28 144//28
f 31//27 144//27 305//27 154//27
f 31//45 154//45 309//45 152//45
f 31//45 152//45 307//45 155//45
f 32//46 232//46 348//46 236//46
f 32//47 236//47 347//47 231//47
f 32//48 231//48 303//48 142//48
f 32//49 142//49 302//49 232//49
f 33//50 233//50 349//50 235//50
f 33//51 235//51 348//51 232//51
f 33//52 232//52 302//52 145//52
f 33//53 145//53 304//53 233//53
f 34//54 146//54 346//54 234//54
f 34//55 234//55 349//55 233//55
f 34//56 233//56 304//56 143//56
f 34//57 143//57 305//57 146//57
f 35//45 153//45 306//45 150//45
f 35//45 150//45 307//45 152//45
f 35//45 152//45 309//45 151//45
f 35//45 151//45 308//45 153//45
f 36//49 156//49 302//49 142//49
f 36//48 142//48 303//48 155//48
f 36//45 155//45 307//45 150//45
f 36//45 150//45 306//45 156//45
f 37//53 157//53 304//53 145//53
f 37//52 145//52 302//52 156//52
f 37//45 156//45 306//45 153//45
f 37//45 153//45 308//45 157//45
f 38//57 154//57 305//57 143//57
f 38//56 143//56 304//56 157//56
f 38//45 157//45 308//45 151//45
f 38//45 151//45 309//45 154//45
f 39//14 171//14 313//14 160//14
f 39//13 160//13 311//13 170//13
f 39//13 170//13 315//13 168//13
f 39//14 168//14 317//14 171//14
f 40//7 194//7 310//7 158//7
f 40//8 158//8 311//8 162//8
f 40//58 162//58 327//58 186//58
f 40//59 186//59 326//59 194//59
f 41//13 162//13 311//13 160//13
f 41//14 160//14 313//14 163//14
f 41//16 163//16 329//16 188//16
f 41//15 188//15 327//15 162//15
f 42//11 164//11 286//11 111//11
f 42//12 111//12 288//12 165//12
f 42//60 165//60 324//60 183//60
f 42//61 183//61 322//61 164//61
f 43//9 212//9 316//9 169//9
f 43//10 169//10 317//10 211//10
f 43//62 211//62 333//62 201//62
f 43//62 201//62 332//62 212//62
f 44//8 170//8 311//8 158//8
f 44//7 158//7 310//7 172//7
f 44//7 172//7 314//7 166//7
f 44//8 166//8 315//8 170//8
f 45//9 173//9 312//9 161//9
f 45//10 161//10 313//10 171//10
f 45//10 171//10 317//10 169//10
f 45//9 169//9 316//9 173//9
f 46//11 172//11 310//11 159//11
f 46//12 159//12 312//12 173//12
f 46//12 173//12 316//12 167//12
f 46//11 167//11 314//11 172//11
f 47//62 181//62 320//62 175//62
f 47//63 175//63 318//63 210//63
f 47//62 210//62 334//62 203//62
f 47//62 203//62 336//62 181//62
f 48//8 178//8 315//8 166//8
f 48//7 166//7 314//7 179//7
f 48//62 179//62 330//62 198//62
f 48//62 198//62 331//62 178//62
f 49//62 180//62 321//62 177//62
f 49//62 177//62 320//62 181//62
f 49//62 181//62 336//62 205//62
f 49//62 205//62 337//62 180//62
f 50//61 191//61 322//61 183//61
f 50//60 183//60 324//60 190//60
f 50//60 190//60 328//60 187//60
f 50//61 187//61 326//61 191//61
f 51//16 193//16 325//16 184//16
f 51//15 184//15 323//15 192//15
f 51//15 192//15 327//15 188//15
f 51//16 188//16 329//16 193//16
f 52//58 192//58 323//58 182//58
f 52//59 182//59 322//59 191//59
f 52//59 191//59 326//59 186//59
f 52//58 186//58 327//58 192//58
f 53//64 190//64 324//64 185//64
f 53//65 185//65 325//65 193//65
f 53//65 193//65 329//65 189//65
f 53//64 189//64 328//64 190//64
f 54//8 195//8 287//8 110//8
f 54//7 110//7 286//7 164//7
f 54//59 164//59 322//59 182//59
f 54//58 182//58 323//58 195//58
f 55//10 163//10 313//10 161//10
f 55//9 161//9 312//9 197//9
f 55//64 197//64 328//64 189//64
f 55//65 189//65 329//65 163//65
f 56//12 197//12 312//12 159//12
f 56//11 159//11 310//11 194//11
f 56//61 194//61 326//61 187//61
f 56//60 187//60 328//60 197//60
f 57//9 165//9 288//9 113//9
f 57//10 113//10 289//10 196//10
f 57//65 196//65 325//65 185//65
f 57//64 185//64 324//64 165//64
f 58//62 207//62 331//62 198//62
f 58//62 198//62 330//62 206//62
f 58//62 206//62 334//62 202//62
f 58//62 202//62 335//62 207//62
f 59//62 209//62 332//62 201//62
f 59//62 201//62 333//62 208//62
f 59//62 208//62 337//62 205//62
f 59//62 205//62 336//62 209//62
f 60//62 206//62 330//62 199//62
f 60//62 199//62 332//62 209//62
f 60//62 209//62 336//62 203//62
f 60//62 203//62 334//62 206//62
f 61//62 208//62 333//62 200//62
f 61//62 200//62 331//62 207//62
f 61//62 207//62 335//62 204//62
f 61//62 204//62 337//62 208//62
f 62//11 179//11 314//11 167//11
f 62//12 167//12 316//12 212//12
f 62//62 212//62 332//62 199//62
f 62//62 199//62 330//62 179//62
f 63//66 213//66 319//66 176//66
f 63//62 176//62 321//62 180//62
f 63//62 180//62 337//62 204//62
f 63//62 204//62 335//62 213//62
f 64//67 210//67 318//67 174//67
f 64//68 174//68 319//68 213//68
f 64//62 213//62 335//62 202//62
f 64//62 202//62 334//62 210//62
f 65//14 211//14 317//14 168//14
f 65//13 168//13 315//13 178//13
f 65//62 178//62 331//62 200//62
f 65//62 200//62 333//62 211//62
f 66//69 214//69 345//69 229//69
f 66//70 229//70 344//70 224//70
f 66//71 224//71 341//71 218//71
f 66//72 218//72 338//72 214//72
f 67//73 224//73 344//73 228//73
f 67//74 228//74 343//74 223//74
f 67//75 223//75 340//75 219//75
f 67//76 219//76 341//76 224//76
f 68//77 243//77 342//77 222//77
f 68//78 222//78 339//78 242//78
f 68//79 242//79 350//79 239//79
f 68//80 239//80 352//80 243//80
f 69//81 222//81 342//81 226//81
f 69//82 226//82 345//82 214//82
f 69//83 214//83 338//83 221//83
f 69//84 221//84 339//84 222//84
f 70//85 147//85 291//85 131//85
f 70//86 131//86 295//86 225//86
f 70//87 225//87 345//87 226//87
f 70//88 226//88 342//88 147//88
f 71//89 148//89 290//89 118//89
f 71//90 118//90 291//90 147//90
f 71//91 147//91 342//91 227//91
f 71//92 227//92 343//92 148//92
f 72//93 149//93 294//93 132//93
f 72//94 132//94 290//94 148//94
f 72//95 148//95 343//95 228//95
f 72//96 228//96 344//96 149//96
f 73//97 225//97 295//97 126//97
f 73//98 126//98 294//98 149//98
f 73//99 149//99 344//99 229//99
f 73//100 229//100 345//100 225//100
f 74//101 230//101 338//101 218//101
f 74//102 218//102 341//102 217//102
f 74//103 217//103 349//103 234//103
f 74//104 234//104 346//104 230//104
f 75//105 217//105 341//105 219//105
f 75//106 219//106 340//106 216//106
f 75//107 216//107 348//107 235//107
f 75//108 235//108 349//108 217//108
f 76//109 216//109 340//109 220//109
f 76//110 220//110 339//110 215//110
f 76//111 215//111 347//111 236//111
f 76//112 236//112 348//112 216//112
f 77//113 215//113 339//113 221//113
f 77//114 221//114 338//114 230//114
f 77//115 230//115 346//115 237//115
f 77//116 237//116 347//116 215//116
f 78//117 251//117 353//117 241//117
f 78//118 241//118 352//118 250//118
f 78//119 250//119 356//119 249//119
f 78//120 249//120 357//120 251//120
f 79//121 242//121 339//121 220//121
f 79//122 220//122 340//122 244//122
f 79//123 244//123 351//123 238//123
f 79//124 238//124 350//124 242//124
f 80//125 245//125 343//125 227//125
f 80//126 227//126 342//126 243//126
f 80//127 243//127 352//127 241//127
f 80//128 241//128 353//128 245//128
f 81//129 244//129 340//129 223//129
f 81//130 223//130 343//130 245//130
f 81//131 245//131 353//131 240//131
f 81//132 240//132 351//132 244//132
f 82//133 259//133 355//133 248//133
f 82//134 248//134 357//134 258//134
f 82//135 258//135 361//135 256//135
f 82//136 256//136 359//136 259//136
f 83//137 250//137 352//137 239//137
f 83//138 239//138 350//138 252//138
f 83//139 252//139 354//139 247//139
f 83//140 247//140 356//140 250//140
f 84//141 253//141 351//141 240//141
f 84//142 240//142 353//142 251//142
f 84//143 251//143 357//143 248//143
f 84//144 248//144 355//144 253//144
f 85//145 252//145 350//145 238//145
f 85//146 238//146 351//146 253//146
f 85//147 253//147 355//147 246//147
f 85//148 246//148 354//148 252//148
f 86//149 267//149 358//149 254//149
f 86//150 254//150 359//150 266//150
f 86//151 266//151 363//151 262//151
f 86//152 262//152 362//152 267//152
f 87//153 260//153 354//153 246//153
f 87//154 246//154 355//154 259//154
f 87//155 259//155 359//155 254//155
f 87//156 254//156 358//156 260//156
f 88//157 258//157 357//157 249//157
f 88//158 249//158 356//158 261//158
f 88//159 261//159 360//159 257//159
f 88//160 257//160 361//160 258//160
f 89//161 261//161 356//161 247//161
f 89//162 247//162 354//162 260//162
f 89//163 260//163 358//163 255//163
f 89//164 255//164 360//164 261//164
f 90//165 275//165 365//165 265//165
f 90//166 265//166 364//166 274//166
f 90//167 274//167 368//167 273//167
f 90//168 273//168 369//168 275//168
f 91//169 269//169 361//169 257//169
f 91//170 257//170 360//170 268//170
f 91//171 268//171 364//171 265//171
f 91//172 265//172 365//172 269//172
f 92//173 268//173 360//173 255//173
f 92//174 255//174 358//174 267//174
f 92//175 267//175 362//175 263//175
f 92//176 263//176 364//176 268//176
f 93//177 266//177 359//177 256//177
f 93//178 256//178 361//178 269//178
f 93//179 269//179 365//179 264//179
f 93//180 264//180 363//180 266//180
f 94//181 272//181 369//181 273//181
f 94//182 273//182 368//182 271//182
f 94//183 271//183 366//183 270//183
f 94//184 270//184 367//184 272//184
f 95//185 274//185 364//185 263//185
f 95//186 263//186 362//186 276//186
f 95//187 276//187 366//187 271//187
f 95//188 271//188 368//188 274//188
f 96//189 277//189 363//189 264//189
f 96//190 264//190 365//190 275//190
f 96//191 275//191 369//191 272//191
f 96//192 272//192 367//192 277//192
f 97//193 276//193 362//193 262//193
f 97//194 262//194 363//194 277//194
f 97//195 277//195 367//195 270//195
f 97//196 270//196 366//196 276//196
